^E:\ROMI FILES\MY IMPORTANT FILES\OPENGL\2DENGINE\2DENGINE\2DENGINE\VERTEXBUFFERARRAY.CC
D:\VISUAL STUDIO 2015\VC\INCLUDE\CSTDIO
D:\VISUAL STUDIO 2015\VC\INCLUDE\YVALS.H
D:\VISUAL STUDIO 2015\VC\INCLUDE\XKEYCHECK.H
D:\VISUAL STUDIO 2015\VC\INCLUDE\CRTDEFS.H
D:\VISUAL STUDIO 2015\VC\INCLUDE\VCRUNTIME.H
D:\VISUAL STUDIO 2015\VC\INCLUDE\SAL.H
D:\VISUAL STUDIO 2015\VC\INCLUDE\CONCURRENCYSAL.H
D:\VISUAL STUDIO 2015\VC\INCLUDE\VADEFS.H
C:\PROGRAM FILES (X86)\WINDOWS KITS\10\INCLUDE\10.0.10240.0\UCRT\CORECRT.H
D:\VISUAL STUDIO 2015\VC\INCLUDE\USE_ANSI.H
C:\PROGRAM FILES (X86)\WINDOWS KITS\10\INCLUDE\10.0.10240.0\UCRT\STDIO.H
C:\PROGRAM FILES (X86)\WINDOWS KITS\10\INCLUDE\10.0.10240.0\UCRT\CORECRT_WSTDIO.H
C:\PROGRAM FILES (X86)\WINDOWS KITS\10\INCLUDE\10.0.10240.0\UCRT\CORECRT_STDIO_CONFIG.H
D:\VISUAL STUDIO 2015\VC\INCLUDE\IOSTREAM
D:\VISUAL STUDIO 2015\VC\INCLUDE\ISTREAM
D:\VISUAL STUDIO 2015\VC\INCLUDE\OSTREAM
D:\VISUAL STUDIO 2015\VC\INCLUDE\IOS
D:\VISUAL STUDIO 2015\VC\INCLUDE\XLOCNUM
D:\VISUAL STUDIO 2015\VC\INCLUDE\CLIMITS
D:\VISUAL STUDIO 2015\VC\INCLUDE\LIMITS.H
D:\VISUAL STUDIO 2015\VC\INCLUDE\CMATH
C:\PROGRAM FILES (X86)\WINDOWS KITS\10\INCLUDE\10.0.10240.0\UCRT\MATH.H
D:\VISUAL STUDIO 2015\VC\INCLUDE\XTGMATH.H
D:\VISUAL STUDIO 2015\VC\INCLUDE\XTR1COMMON
D:\VISUAL STUDIO 2015\VC\INCLUDE\CSTDLIB
C:\PROGRAM FILES (X86)\WINDOWS KITS\10\INCLUDE\10.0.10240.0\UCRT\STDLIB.H
C:\PROGRAM FILES (X86)\WINDOWS KITS\10\INCLUDE\10.0.10240.0\UCRT\CORECRT_MALLOC.H
C:\PROGRAM FILES (X86)\WINDOWS KITS\10\INCLUDE\10.0.10240.0\UCRT\CORECRT_SEARCH.H
C:\PROGRAM FILES (X86)\WINDOWS KITS\10\INCLUDE\10.0.10240.0\UCRT\STDDEF.H
C:\PROGRAM FILES (X86)\WINDOWS KITS\10\INCLUDE\10.0.10240.0\UCRT\CORECRT_WSTDLIB.H
D:\VISUAL STUDIO 2015\VC\INCLUDE\STREAMBUF
D:\VISUAL STUDIO 2015\VC\INCLUDE\XIOSBASE
D:\VISUAL STUDIO 2015\VC\INCLUDE\XLOCALE
D:\VISUAL STUDIO 2015\VC\INCLUDE\CSTRING
C:\PROGRAM FILES (X86)\WINDOWS KITS\10\INCLUDE\10.0.10240.0\UCRT\STRING.H
C:\PROGRAM FILES (X86)\WINDOWS KITS\10\INCLUDE\10.0.10240.0\UCRT\CORECRT_MEMORY.H
C:\PROGRAM FILES (X86)\WINDOWS KITS\10\INCLUDE\10.0.10240.0\UCRT\CORECRT_MEMCPY_S.H
C:\PROGRAM FILES (X86)\WINDOWS KITS\10\INCLUDE\10.0.10240.0\UCRT\ERRNO.H
D:\VISUAL STUDIO 2015\VC\INCLUDE\VCRUNTIME_STRING.H
C:\PROGRAM FILES (X86)\WINDOWS KITS\10\INCLUDE\10.0.10240.0\UCRT\CORECRT_WSTRING.H
D:\VISUAL STUDIO 2015\VC\INCLUDE\STDEXCEPT
D:\VISUAL STUDIO 2015\VC\INCLUDE\EXCEPTION
D:\VISUAL STUDIO 2015\VC\INCLUDE\TYPE_TRAITS
D:\VISUAL STUDIO 2015\VC\INCLUDE\XSTDDEF
D:\VISUAL STUDIO 2015\VC\INCLUDE\CSTDDEF
D:\VISUAL STUDIO 2015\VC\INCLUDE\INITIALIZER_LIST
C:\PROGRAM FILES (X86)\WINDOWS KITS\10\INCLUDE\10.0.10240.0\UCRT\MALLOC.H
D:\VISUAL STUDIO 2015\VC\INCLUDE\VCRUNTIME_EXCEPTION.H
D:\VISUAL STUDIO 2015\VC\INCLUDE\EH.H
C:\PROGRAM FILES (X86)\WINDOWS KITS\10\INCLUDE\10.0.10240.0\UCRT\CORECRT_TERMINATE.H
D:\VISUAL STUDIO 2015\VC\INCLUDE\XSTRING
D:\VISUAL STUDIO 2015\VC\INCLUDE\XMEMORY0
D:\VISUAL STUDIO 2015\VC\INCLUDE\CSTDINT
D:\VISUAL STUDIO 2015\VC\INCLUDE\STDINT.H
D:\VISUAL STUDIO 2015\VC\INCLUDE\LIMITS
D:\VISUAL STUDIO 2015\VC\INCLUDE\YMATH.H
D:\VISUAL STUDIO 2015\VC\INCLUDE\CFLOAT
C:\PROGRAM FILES (X86)\WINDOWS KITS\10\INCLUDE\10.0.10240.0\UCRT\FLOAT.H
D:\VISUAL STUDIO 2015\VC\INCLUDE\CWCHAR
C:\PROGRAM FILES (X86)\WINDOWS KITS\10\INCLUDE\10.0.10240.0\UCRT\WCHAR.H
C:\PROGRAM FILES (X86)\WINDOWS KITS\10\INCLUDE\10.0.10240.0\UCRT\CORECRT_WCONIO.H
C:\PROGRAM FILES (X86)\WINDOWS KITS\10\INCLUDE\10.0.10240.0\UCRT\CORECRT_WCTYPE.H
C:\PROGRAM FILES (X86)\WINDOWS KITS\10\INCLUDE\10.0.10240.0\UCRT\CORECRT_WDIRECT.H
C:\PROGRAM FILES (X86)\WINDOWS KITS\10\INCLUDE\10.0.10240.0\UCRT\CORECRT_WIO.H
C:\PROGRAM FILES (X86)\WINDOWS KITS\10\INCLUDE\10.0.10240.0\UCRT\CORECRT_SHARE.H
C:\PROGRAM FILES (X86)\WINDOWS KITS\10\INCLUDE\10.0.10240.0\UCRT\CORECRT_WPROCESS.H
C:\PROGRAM FILES (X86)\WINDOWS KITS\10\INCLUDE\10.0.10240.0\UCRT\CORECRT_WTIME.H
C:\PROGRAM FILES (X86)\WINDOWS KITS\10\INCLUDE\10.0.10240.0\UCRT\SYS\STAT.H
C:\PROGRAM FILES (X86)\WINDOWS KITS\10\INCLUDE\10.0.10240.0\UCRT\SYS\TYPES.H
D:\VISUAL STUDIO 2015\VC\INCLUDE\NEW
D:\VISUAL STUDIO 2015\VC\INCLUDE\VCRUNTIME_NEW.H
D:\VISUAL STUDIO 2015\VC\INCLUDE\XUTILITY
D:\VISUAL STUDIO 2015\VC\INCLUDE\UTILITY
D:\VISUAL STUDIO 2015\VC\INCLUDE\IOSFWD
C:\PROGRAM FILES (X86)\WINDOWS KITS\10\INCLUDE\10.0.10240.0\UCRT\CRTDBG.H
D:\VISUAL STUDIO 2015\VC\INCLUDE\VCRUNTIME_NEW_DEBUG.H
D:\VISUAL STUDIO 2015\VC\INCLUDE\XATOMIC0.H
D:\VISUAL STUDIO 2015\VC\INCLUDE\INTRIN.H
D:\VISUAL STUDIO 2015\VC\INCLUDE\SETJMP.H
D:\VISUAL STUDIO 2015\VC\INCLUDE\IMMINTRIN.H
D:\VISUAL STUDIO 2015\VC\INCLUDE\WMMINTRIN.H
D:\VISUAL STUDIO 2015\VC\INCLUDE\NMMINTRIN.H
D:\VISUAL STUDIO 2015\VC\INCLUDE\SMMINTRIN.H
D:\VISUAL STUDIO 2015\VC\INCLUDE\TMMINTRIN.H
D:\VISUAL STUDIO 2015\VC\INCLUDE\PMMINTRIN.H
D:\VISUAL STUDIO 2015\VC\INCLUDE\EMMINTRIN.H
D:\VISUAL STUDIO 2015\VC\INCLUDE\XMMINTRIN.H
D:\VISUAL STUDIO 2015\VC\INCLUDE\MMINTRIN.H
D:\VISUAL STUDIO 2015\VC\INCLUDE\AMMINTRIN.H
D:\VISUAL STUDIO 2015\VC\INCLUDE\MM3DNOW.H
D:\VISUAL STUDIO 2015\VC\INCLUDE\TYPEINFO
D:\VISUAL STUDIO 2015\VC\INCLUDE\VCRUNTIME_TYPEINFO.H
D:\VISUAL STUDIO 2015\VC\INCLUDE\XLOCINFO
D:\VISUAL STUDIO 2015\VC\INCLUDE\XLOCINFO.H
C:\PROGRAM FILES (X86)\WINDOWS KITS\10\INCLUDE\10.0.10240.0\UCRT\CTYPE.H
C:\PROGRAM FILES (X86)\WINDOWS KITS\10\INCLUDE\10.0.10240.0\UCRT\LOCALE.H
D:\VISUAL STUDIO 2015\VC\INCLUDE\XFACET
D:\VISUAL STUDIO 2015\VC\INCLUDE\SYSTEM_ERROR
D:\VISUAL STUDIO 2015\VC\INCLUDE\CERRNO
C:\PROGRAM FILES (X86)\WINDOWS KITS\10\INCLUDE\10.0.10240.0\UCRT\SHARE.H
E:\ROMI FILES\MY IMPORTANT FILES\OPENGL\2DENGINE\2DENGINE\2DENGINE\VERTEXBUFFERARRAY.H
E:\ROMI FILES\MY IMPORTANT FILES\OPENGL\2DENGINE\2DENGINE\PACKAGES\NUPENGL.CORE.0.1.0.1\BUILD\NATIVE\INCLUDE\GL\GLEW.H
C:\PROGRAM FILES (X86)\WINDOWS KITS\8.1\INCLUDE\UM\GL\GLU.H
C:\PROGRAM FILES (X86)\WINDOWS KITS\8.1\INCLUDE\SHARED\WINAPIFAMILY.H
C:\PROGRAM FILES (X86)\WINDOWS KITS\8.1\INCLUDE\UM\GL\GL.H
^E:\ROMI FILES\MY IMPORTANT FILES\OPENGL\2DENGINE\2DENGINE\2DENGINE\VECTOR2D.CPP
E:\ROMI FILES\MY IMPORTANT FILES\OPENGL\2DENGINE\2DENGINE\2DENGINE\VECTOR2D.H
D:\VISUAL STUDIO 2015\VC\INCLUDE\CMATH
D:\VISUAL STUDIO 2015\VC\INCLUDE\YVALS.H
D:\VISUAL STUDIO 2015\VC\INCLUDE\XKEYCHECK.H
D:\VISUAL STUDIO 2015\VC\INCLUDE\CRTDEFS.H
D:\VISUAL STUDIO 2015\VC\INCLUDE\VCRUNTIME.H
D:\VISUAL STUDIO 2015\VC\INCLUDE\SAL.H
D:\VISUAL STUDIO 2015\VC\INCLUDE\CONCURRENCYSAL.H
D:\VISUAL STUDIO 2015\VC\INCLUDE\VADEFS.H
C:\PROGRAM FILES (X86)\WINDOWS KITS\10\INCLUDE\10.0.10240.0\UCRT\CORECRT.H
D:\VISUAL STUDIO 2015\VC\INCLUDE\USE_ANSI.H
C:\PROGRAM FILES (X86)\WINDOWS KITS\10\INCLUDE\10.0.10240.0\UCRT\MATH.H
D:\VISUAL STUDIO 2015\VC\INCLUDE\XTGMATH.H
D:\VISUAL STUDIO 2015\VC\INCLUDE\XTR1COMMON
D:\VISUAL STUDIO 2015\VC\INCLUDE\CSTDLIB
C:\PROGRAM FILES (X86)\WINDOWS KITS\10\INCLUDE\10.0.10240.0\UCRT\STDLIB.H
C:\PROGRAM FILES (X86)\WINDOWS KITS\10\INCLUDE\10.0.10240.0\UCRT\CORECRT_MALLOC.H
C:\PROGRAM FILES (X86)\WINDOWS KITS\10\INCLUDE\10.0.10240.0\UCRT\CORECRT_SEARCH.H
C:\PROGRAM FILES (X86)\WINDOWS KITS\10\INCLUDE\10.0.10240.0\UCRT\STDDEF.H
C:\PROGRAM FILES (X86)\WINDOWS KITS\10\INCLUDE\10.0.10240.0\UCRT\CORECRT_WSTDLIB.H
D:\VISUAL STUDIO 2015\VC\INCLUDE\LIMITS.H
^E:\ROMI FILES\MY IMPORTANT FILES\OPENGL\2DENGINE\2DENGINE\2DENGINE\SHADER.CC
E:\ROMI FILES\MY IMPORTANT FILES\OPENGL\2DENGINE\2DENGINE\2DENGINE\SHADER.H
D:\VISUAL STUDIO 2015\VC\INCLUDE\STRING
D:\VISUAL STUDIO 2015\VC\INCLUDE\ISTREAM
D:\VISUAL STUDIO 2015\VC\INCLUDE\OSTREAM
D:\VISUAL STUDIO 2015\VC\INCLUDE\IOS
D:\VISUAL STUDIO 2015\VC\INCLUDE\XLOCNUM
D:\VISUAL STUDIO 2015\VC\INCLUDE\CLIMITS
D:\VISUAL STUDIO 2015\VC\INCLUDE\YVALS.H
D:\VISUAL STUDIO 2015\VC\INCLUDE\XKEYCHECK.H
D:\VISUAL STUDIO 2015\VC\INCLUDE\CRTDEFS.H
D:\VISUAL STUDIO 2015\VC\INCLUDE\VCRUNTIME.H
D:\VISUAL STUDIO 2015\VC\INCLUDE\SAL.H
D:\VISUAL STUDIO 2015\VC\INCLUDE\CONCURRENCYSAL.H
D:\VISUAL STUDIO 2015\VC\INCLUDE\VADEFS.H
C:\PROGRAM FILES (X86)\WINDOWS KITS\10\INCLUDE\10.0.10240.0\UCRT\CORECRT.H
D:\VISUAL STUDIO 2015\VC\INCLUDE\USE_ANSI.H
D:\VISUAL STUDIO 2015\VC\INCLUDE\LIMITS.H
D:\VISUAL STUDIO 2015\VC\INCLUDE\CMATH
C:\PROGRAM FILES (X86)\WINDOWS KITS\10\INCLUDE\10.0.10240.0\UCRT\MATH.H
D:\VISUAL STUDIO 2015\VC\INCLUDE\XTGMATH.H
D:\VISUAL STUDIO 2015\VC\INCLUDE\XTR1COMMON
D:\VISUAL STUDIO 2015\VC\INCLUDE\CSTDLIB
C:\PROGRAM FILES (X86)\WINDOWS KITS\10\INCLUDE\10.0.10240.0\UCRT\STDLIB.H
C:\PROGRAM FILES (X86)\WINDOWS KITS\10\INCLUDE\10.0.10240.0\UCRT\CORECRT_MALLOC.H
C:\PROGRAM FILES (X86)\WINDOWS KITS\10\INCLUDE\10.0.10240.0\UCRT\CORECRT_SEARCH.H
C:\PROGRAM FILES (X86)\WINDOWS KITS\10\INCLUDE\10.0.10240.0\UCRT\STDDEF.H
C:\PROGRAM FILES (X86)\WINDOWS KITS\10\INCLUDE\10.0.10240.0\UCRT\CORECRT_WSTDLIB.H
D:\VISUAL STUDIO 2015\VC\INCLUDE\CSTDIO
C:\PROGRAM FILES (X86)\WINDOWS KITS\10\INCLUDE\10.0.10240.0\UCRT\STDIO.H
C:\PROGRAM FILES (X86)\WINDOWS KITS\10\INCLUDE\10.0.10240.0\UCRT\CORECRT_WSTDIO.H
C:\PROGRAM FILES (X86)\WINDOWS KITS\10\INCLUDE\10.0.10240.0\UCRT\CORECRT_STDIO_CONFIG.H
D:\VISUAL STUDIO 2015\VC\INCLUDE\STREAMBUF
D:\VISUAL STUDIO 2015\VC\INCLUDE\XIOSBASE
D:\VISUAL STUDIO 2015\VC\INCLUDE\XLOCALE
D:\VISUAL STUDIO 2015\VC\INCLUDE\CSTRING
C:\PROGRAM FILES (X86)\WINDOWS KITS\10\INCLUDE\10.0.10240.0\UCRT\STRING.H
C:\PROGRAM FILES (X86)\WINDOWS KITS\10\INCLUDE\10.0.10240.0\UCRT\CORECRT_MEMORY.H
C:\PROGRAM FILES (X86)\WINDOWS KITS\10\INCLUDE\10.0.10240.0\UCRT\CORECRT_MEMCPY_S.H
C:\PROGRAM FILES (X86)\WINDOWS KITS\10\INCLUDE\10.0.10240.0\UCRT\ERRNO.H
D:\VISUAL STUDIO 2015\VC\INCLUDE\VCRUNTIME_STRING.H
C:\PROGRAM FILES (X86)\WINDOWS KITS\10\INCLUDE\10.0.10240.0\UCRT\CORECRT_WSTRING.H
D:\VISUAL STUDIO 2015\VC\INCLUDE\STDEXCEPT
D:\VISUAL STUDIO 2015\VC\INCLUDE\EXCEPTION
D:\VISUAL STUDIO 2015\VC\INCLUDE\TYPE_TRAITS
D:\VISUAL STUDIO 2015\VC\INCLUDE\XSTDDEF
D:\VISUAL STUDIO 2015\VC\INCLUDE\CSTDDEF
D:\VISUAL STUDIO 2015\VC\INCLUDE\INITIALIZER_LIST
C:\PROGRAM FILES (X86)\WINDOWS KITS\10\INCLUDE\10.0.10240.0\UCRT\MALLOC.H
D:\VISUAL STUDIO 2015\VC\INCLUDE\VCRUNTIME_EXCEPTION.H
D:\VISUAL STUDIO 2015\VC\INCLUDE\EH.H
C:\PROGRAM FILES (X86)\WINDOWS KITS\10\INCLUDE\10.0.10240.0\UCRT\CORECRT_TERMINATE.H
D:\VISUAL STUDIO 2015\VC\INCLUDE\XSTRING
D:\VISUAL STUDIO 2015\VC\INCLUDE\XMEMORY0
D:\VISUAL STUDIO 2015\VC\INCLUDE\CSTDINT
D:\VISUAL STUDIO 2015\VC\INCLUDE\STDINT.H
D:\VISUAL STUDIO 2015\VC\INCLUDE\LIMITS
D:\VISUAL STUDIO 2015\VC\INCLUDE\YMATH.H
D:\VISUAL STUDIO 2015\VC\INCLUDE\CFLOAT
C:\PROGRAM FILES (X86)\WINDOWS KITS\10\INCLUDE\10.0.10240.0\UCRT\FLOAT.H
D:\VISUAL STUDIO 2015\VC\INCLUDE\CWCHAR
C:\PROGRAM FILES (X86)\WINDOWS KITS\10\INCLUDE\10.0.10240.0\UCRT\WCHAR.H
C:\PROGRAM FILES (X86)\WINDOWS KITS\10\INCLUDE\10.0.10240.0\UCRT\CORECRT_WCONIO.H
C:\PROGRAM FILES (X86)\WINDOWS KITS\10\INCLUDE\10.0.10240.0\UCRT\CORECRT_WCTYPE.H
C:\PROGRAM FILES (X86)\WINDOWS KITS\10\INCLUDE\10.0.10240.0\UCRT\CORECRT_WDIRECT.H
C:\PROGRAM FILES (X86)\WINDOWS KITS\10\INCLUDE\10.0.10240.0\UCRT\CORECRT_WIO.H
C:\PROGRAM FILES (X86)\WINDOWS KITS\10\INCLUDE\10.0.10240.0\UCRT\CORECRT_SHARE.H
C:\PROGRAM FILES (X86)\WINDOWS KITS\10\INCLUDE\10.0.10240.0\UCRT\CORECRT_WPROCESS.H
C:\PROGRAM FILES (X86)\WINDOWS KITS\10\INCLUDE\10.0.10240.0\UCRT\CORECRT_WTIME.H
C:\PROGRAM FILES (X86)\WINDOWS KITS\10\INCLUDE\10.0.10240.0\UCRT\SYS\STAT.H
C:\PROGRAM FILES (X86)\WINDOWS KITS\10\INCLUDE\10.0.10240.0\UCRT\SYS\TYPES.H
D:\VISUAL STUDIO 2015\VC\INCLUDE\NEW
D:\VISUAL STUDIO 2015\VC\INCLUDE\VCRUNTIME_NEW.H
D:\VISUAL STUDIO 2015\VC\INCLUDE\XUTILITY
D:\VISUAL STUDIO 2015\VC\INCLUDE\UTILITY
D:\VISUAL STUDIO 2015\VC\INCLUDE\IOSFWD
C:\PROGRAM FILES (X86)\WINDOWS KITS\10\INCLUDE\10.0.10240.0\UCRT\CRTDBG.H
D:\VISUAL STUDIO 2015\VC\INCLUDE\VCRUNTIME_NEW_DEBUG.H
D:\VISUAL STUDIO 2015\VC\INCLUDE\XATOMIC0.H
D:\VISUAL STUDIO 2015\VC\INCLUDE\INTRIN.H
D:\VISUAL STUDIO 2015\VC\INCLUDE\SETJMP.H
D:\VISUAL STUDIO 2015\VC\INCLUDE\IMMINTRIN.H
D:\VISUAL STUDIO 2015\VC\INCLUDE\WMMINTRIN.H
D:\VISUAL STUDIO 2015\VC\INCLUDE\NMMINTRIN.H
D:\VISUAL STUDIO 2015\VC\INCLUDE\SMMINTRIN.H
D:\VISUAL STUDIO 2015\VC\INCLUDE\TMMINTRIN.H
D:\VISUAL STUDIO 2015\VC\INCLUDE\PMMINTRIN.H
D:\VISUAL STUDIO 2015\VC\INCLUDE\EMMINTRIN.H
D:\VISUAL STUDIO 2015\VC\INCLUDE\XMMINTRIN.H
D:\VISUAL STUDIO 2015\VC\INCLUDE\MMINTRIN.H
D:\VISUAL STUDIO 2015\VC\INCLUDE\AMMINTRIN.H
D:\VISUAL STUDIO 2015\VC\INCLUDE\MM3DNOW.H
D:\VISUAL STUDIO 2015\VC\INCLUDE\TYPEINFO
D:\VISUAL STUDIO 2015\VC\INCLUDE\VCRUNTIME_TYPEINFO.H
D:\VISUAL STUDIO 2015\VC\INCLUDE\XLOCINFO
D:\VISUAL STUDIO 2015\VC\INCLUDE\XLOCINFO.H
C:\PROGRAM FILES (X86)\WINDOWS KITS\10\INCLUDE\10.0.10240.0\UCRT\CTYPE.H
C:\PROGRAM FILES (X86)\WINDOWS KITS\10\INCLUDE\10.0.10240.0\UCRT\LOCALE.H
D:\VISUAL STUDIO 2015\VC\INCLUDE\XFACET
D:\VISUAL STUDIO 2015\VC\INCLUDE\SYSTEM_ERROR
D:\VISUAL STUDIO 2015\VC\INCLUDE\CERRNO
C:\PROGRAM FILES (X86)\WINDOWS KITS\10\INCLUDE\10.0.10240.0\UCRT\SHARE.H
D:\VISUAL STUDIO 2015\VC\INCLUDE\FSTREAM
D:\VISUAL STUDIO 2015\VC\INCLUDE\SSTREAM
D:\VISUAL STUDIO 2015\VC\INCLUDE\IOSTREAM
E:\ROMI FILES\MY IMPORTANT FILES\OPENGL\2DENGINE\2DENGINE\PACKAGES\NUPENGL.CORE.0.1.0.1\BUILD\NATIVE\INCLUDE\GL\GLEW.H
C:\PROGRAM FILES (X86)\WINDOWS KITS\8.1\INCLUDE\UM\GL\GLU.H
C:\PROGRAM FILES (X86)\WINDOWS KITS\8.1\INCLUDE\SHARED\WINAPIFAMILY.H
C:\PROGRAM FILES (X86)\WINDOWS KITS\8.1\INCLUDE\UM\GL\GL.H
^E:\ROMI FILES\MY IMPORTANT FILES\OPENGL\2DENGINE\2DENGINE\2DENGINE\QUAD.CC
E:\ROMI FILES\MY IMPORTANT FILES\OPENGL\2DENGINE\2DENGINE\2DENGINE\QUAD.H
E:\ROMI FILES\MY IMPORTANT FILES\OPENGL\2DENGINE\2DENGINE\2DENGINE\SHADER.H
D:\VISUAL STUDIO 2015\VC\INCLUDE\STRING
D:\VISUAL STUDIO 2015\VC\INCLUDE\ISTREAM
D:\VISUAL STUDIO 2015\VC\INCLUDE\OSTREAM
D:\VISUAL STUDIO 2015\VC\INCLUDE\IOS
D:\VISUAL STUDIO 2015\VC\INCLUDE\XLOCNUM
D:\VISUAL STUDIO 2015\VC\INCLUDE\CLIMITS
D:\VISUAL STUDIO 2015\VC\INCLUDE\YVALS.H
D:\VISUAL STUDIO 2015\VC\INCLUDE\XKEYCHECK.H
D:\VISUAL STUDIO 2015\VC\INCLUDE\CRTDEFS.H
D:\VISUAL STUDIO 2015\VC\INCLUDE\VCRUNTIME.H
D:\VISUAL STUDIO 2015\VC\INCLUDE\SAL.H
D:\VISUAL STUDIO 2015\VC\INCLUDE\CONCURRENCYSAL.H
D:\VISUAL STUDIO 2015\VC\INCLUDE\VADEFS.H
C:\PROGRAM FILES (X86)\WINDOWS KITS\10\INCLUDE\10.0.10240.0\UCRT\CORECRT.H
D:\VISUAL STUDIO 2015\VC\INCLUDE\USE_ANSI.H
D:\VISUAL STUDIO 2015\VC\INCLUDE\LIMITS.H
D:\VISUAL STUDIO 2015\VC\INCLUDE\CMATH
C:\PROGRAM FILES (X86)\WINDOWS KITS\10\INCLUDE\10.0.10240.0\UCRT\MATH.H
D:\VISUAL STUDIO 2015\VC\INCLUDE\XTGMATH.H
D:\VISUAL STUDIO 2015\VC\INCLUDE\XTR1COMMON
D:\VISUAL STUDIO 2015\VC\INCLUDE\CSTDLIB
C:\PROGRAM FILES (X86)\WINDOWS KITS\10\INCLUDE\10.0.10240.0\UCRT\STDLIB.H
C:\PROGRAM FILES (X86)\WINDOWS KITS\10\INCLUDE\10.0.10240.0\UCRT\CORECRT_MALLOC.H
C:\PROGRAM FILES (X86)\WINDOWS KITS\10\INCLUDE\10.0.10240.0\UCRT\CORECRT_SEARCH.H
C:\PROGRAM FILES (X86)\WINDOWS KITS\10\INCLUDE\10.0.10240.0\UCRT\STDDEF.H
C:\PROGRAM FILES (X86)\WINDOWS KITS\10\INCLUDE\10.0.10240.0\UCRT\CORECRT_WSTDLIB.H
D:\VISUAL STUDIO 2015\VC\INCLUDE\CSTDIO
C:\PROGRAM FILES (X86)\WINDOWS KITS\10\INCLUDE\10.0.10240.0\UCRT\STDIO.H
C:\PROGRAM FILES (X86)\WINDOWS KITS\10\INCLUDE\10.0.10240.0\UCRT\CORECRT_WSTDIO.H
C:\PROGRAM FILES (X86)\WINDOWS KITS\10\INCLUDE\10.0.10240.0\UCRT\CORECRT_STDIO_CONFIG.H
D:\VISUAL STUDIO 2015\VC\INCLUDE\STREAMBUF
D:\VISUAL STUDIO 2015\VC\INCLUDE\XIOSBASE
D:\VISUAL STUDIO 2015\VC\INCLUDE\XLOCALE
D:\VISUAL STUDIO 2015\VC\INCLUDE\CSTRING
C:\PROGRAM FILES (X86)\WINDOWS KITS\10\INCLUDE\10.0.10240.0\UCRT\STRING.H
C:\PROGRAM FILES (X86)\WINDOWS KITS\10\INCLUDE\10.0.10240.0\UCRT\CORECRT_MEMORY.H
C:\PROGRAM FILES (X86)\WINDOWS KITS\10\INCLUDE\10.0.10240.0\UCRT\CORECRT_MEMCPY_S.H
C:\PROGRAM FILES (X86)\WINDOWS KITS\10\INCLUDE\10.0.10240.0\UCRT\ERRNO.H
D:\VISUAL STUDIO 2015\VC\INCLUDE\VCRUNTIME_STRING.H
C:\PROGRAM FILES (X86)\WINDOWS KITS\10\INCLUDE\10.0.10240.0\UCRT\CORECRT_WSTRING.H
D:\VISUAL STUDIO 2015\VC\INCLUDE\STDEXCEPT
D:\VISUAL STUDIO 2015\VC\INCLUDE\EXCEPTION
D:\VISUAL STUDIO 2015\VC\INCLUDE\TYPE_TRAITS
D:\VISUAL STUDIO 2015\VC\INCLUDE\XSTDDEF
D:\VISUAL STUDIO 2015\VC\INCLUDE\CSTDDEF
D:\VISUAL STUDIO 2015\VC\INCLUDE\INITIALIZER_LIST
C:\PROGRAM FILES (X86)\WINDOWS KITS\10\INCLUDE\10.0.10240.0\UCRT\MALLOC.H
D:\VISUAL STUDIO 2015\VC\INCLUDE\VCRUNTIME_EXCEPTION.H
D:\VISUAL STUDIO 2015\VC\INCLUDE\EH.H
C:\PROGRAM FILES (X86)\WINDOWS KITS\10\INCLUDE\10.0.10240.0\UCRT\CORECRT_TERMINATE.H
D:\VISUAL STUDIO 2015\VC\INCLUDE\XSTRING
D:\VISUAL STUDIO 2015\VC\INCLUDE\XMEMORY0
D:\VISUAL STUDIO 2015\VC\INCLUDE\CSTDINT
D:\VISUAL STUDIO 2015\VC\INCLUDE\STDINT.H
D:\VISUAL STUDIO 2015\VC\INCLUDE\LIMITS
D:\VISUAL STUDIO 2015\VC\INCLUDE\YMATH.H
D:\VISUAL STUDIO 2015\VC\INCLUDE\CFLOAT
C:\PROGRAM FILES (X86)\WINDOWS KITS\10\INCLUDE\10.0.10240.0\UCRT\FLOAT.H
D:\VISUAL STUDIO 2015\VC\INCLUDE\CWCHAR
C:\PROGRAM FILES (X86)\WINDOWS KITS\10\INCLUDE\10.0.10240.0\UCRT\WCHAR.H
C:\PROGRAM FILES (X86)\WINDOWS KITS\10\INCLUDE\10.0.10240.0\UCRT\CORECRT_WCONIO.H
C:\PROGRAM FILES (X86)\WINDOWS KITS\10\INCLUDE\10.0.10240.0\UCRT\CORECRT_WCTYPE.H
C:\PROGRAM FILES (X86)\WINDOWS KITS\10\INCLUDE\10.0.10240.0\UCRT\CORECRT_WDIRECT.H
C:\PROGRAM FILES (X86)\WINDOWS KITS\10\INCLUDE\10.0.10240.0\UCRT\CORECRT_WIO.H
C:\PROGRAM FILES (X86)\WINDOWS KITS\10\INCLUDE\10.0.10240.0\UCRT\CORECRT_SHARE.H
C:\PROGRAM FILES (X86)\WINDOWS KITS\10\INCLUDE\10.0.10240.0\UCRT\CORECRT_WPROCESS.H
C:\PROGRAM FILES (X86)\WINDOWS KITS\10\INCLUDE\10.0.10240.0\UCRT\CORECRT_WTIME.H
C:\PROGRAM FILES (X86)\WINDOWS KITS\10\INCLUDE\10.0.10240.0\UCRT\SYS\STAT.H
C:\PROGRAM FILES (X86)\WINDOWS KITS\10\INCLUDE\10.0.10240.0\UCRT\SYS\TYPES.H
D:\VISUAL STUDIO 2015\VC\INCLUDE\NEW
D:\VISUAL STUDIO 2015\VC\INCLUDE\VCRUNTIME_NEW.H
D:\VISUAL STUDIO 2015\VC\INCLUDE\XUTILITY
D:\VISUAL STUDIO 2015\VC\INCLUDE\UTILITY
D:\VISUAL STUDIO 2015\VC\INCLUDE\IOSFWD
C:\PROGRAM FILES (X86)\WINDOWS KITS\10\INCLUDE\10.0.10240.0\UCRT\CRTDBG.H
D:\VISUAL STUDIO 2015\VC\INCLUDE\VCRUNTIME_NEW_DEBUG.H
D:\VISUAL STUDIO 2015\VC\INCLUDE\XATOMIC0.H
D:\VISUAL STUDIO 2015\VC\INCLUDE\INTRIN.H
D:\VISUAL STUDIO 2015\VC\INCLUDE\SETJMP.H
D:\VISUAL STUDIO 2015\VC\INCLUDE\IMMINTRIN.H
D:\VISUAL STUDIO 2015\VC\INCLUDE\WMMINTRIN.H
D:\VISUAL STUDIO 2015\VC\INCLUDE\NMMINTRIN.H
D:\VISUAL STUDIO 2015\VC\INCLUDE\SMMINTRIN.H
D:\VISUAL STUDIO 2015\VC\INCLUDE\TMMINTRIN.H
D:\VISUAL STUDIO 2015\VC\INCLUDE\PMMINTRIN.H
D:\VISUAL STUDIO 2015\VC\INCLUDE\EMMINTRIN.H
D:\VISUAL STUDIO 2015\VC\INCLUDE\XMMINTRIN.H
D:\VISUAL STUDIO 2015\VC\INCLUDE\MMINTRIN.H
D:\VISUAL STUDIO 2015\VC\INCLUDE\AMMINTRIN.H
D:\VISUAL STUDIO 2015\VC\INCLUDE\MM3DNOW.H
D:\VISUAL STUDIO 2015\VC\INCLUDE\TYPEINFO
D:\VISUAL STUDIO 2015\VC\INCLUDE\VCRUNTIME_TYPEINFO.H
D:\VISUAL STUDIO 2015\VC\INCLUDE\XLOCINFO
D:\VISUAL STUDIO 2015\VC\INCLUDE\XLOCINFO.H
C:\PROGRAM FILES (X86)\WINDOWS KITS\10\INCLUDE\10.0.10240.0\UCRT\CTYPE.H
C:\PROGRAM FILES (X86)\WINDOWS KITS\10\INCLUDE\10.0.10240.0\UCRT\LOCALE.H
D:\VISUAL STUDIO 2015\VC\INCLUDE\XFACET
D:\VISUAL STUDIO 2015\VC\INCLUDE\SYSTEM_ERROR
D:\VISUAL STUDIO 2015\VC\INCLUDE\CERRNO
C:\PROGRAM FILES (X86)\WINDOWS KITS\10\INCLUDE\10.0.10240.0\UCRT\SHARE.H
D:\VISUAL STUDIO 2015\VC\INCLUDE\FSTREAM
D:\VISUAL STUDIO 2015\VC\INCLUDE\SSTREAM
D:\VISUAL STUDIO 2015\VC\INCLUDE\IOSTREAM
E:\ROMI FILES\MY IMPORTANT FILES\OPENGL\2DENGINE\2DENGINE\PACKAGES\NUPENGL.CORE.0.1.0.1\BUILD\NATIVE\INCLUDE\GL\GLEW.H
C:\PROGRAM FILES (X86)\WINDOWS KITS\8.1\INCLUDE\UM\GL\GLU.H
C:\PROGRAM FILES (X86)\WINDOWS KITS\8.1\INCLUDE\SHARED\WINAPIFAMILY.H
C:\PROGRAM FILES (X86)\WINDOWS KITS\8.1\INCLUDE\UM\GL\GL.H
E:\ROMI FILES\MY IMPORTANT FILES\OPENGL\2DENGINE\2DENGINE\2DENGINE\MATRIX3X3.H
E:\ROMI FILES\MY IMPORTANT FILES\OPENGL\2DENGINE\2DENGINE\2DENGINE\VERTEXBUFFERARRAY.H
E:\ROMI FILES\MY IMPORTANT FILES\OPENGL\2DENGINE\2DENGINE\PACKAGES\GLM.0.9.7.1\BUILD\NATIVE\INCLUDE\GLM\GLM.HPP
E:\ROMI FILES\MY IMPORTANT FILES\OPENGL\2DENGINE\2DENGINE\PACKAGES\GLM.0.9.7.1\BUILD\NATIVE\INCLUDE\GLM\DETAIL\_FIXES.HPP
D:\VISUAL STUDIO 2015\VC\INCLUDE\CASSERT
C:\PROGRAM FILES (X86)\WINDOWS KITS\10\INCLUDE\10.0.10240.0\UCRT\ASSERT.H
E:\ROMI FILES\MY IMPORTANT FILES\OPENGL\2DENGINE\2DENGINE\PACKAGES\GLM.0.9.7.1\BUILD\NATIVE\INCLUDE\GLM\FWD.HPP
E:\ROMI FILES\MY IMPORTANT FILES\OPENGL\2DENGINE\2DENGINE\PACKAGES\GLM.0.9.7.1\BUILD\NATIVE\INCLUDE\GLM\DETAIL\TYPE_INT.HPP
E:\ROMI FILES\MY IMPORTANT FILES\OPENGL\2DENGINE\2DENGINE\PACKAGES\GLM.0.9.7.1\BUILD\NATIVE\INCLUDE\GLM\DETAIL\SETUP.HPP
E:\ROMI FILES\MY IMPORTANT FILES\OPENGL\2DENGINE\2DENGINE\PACKAGES\GLM.0.9.7.1\BUILD\NATIVE\INCLUDE\GLM\DETAIL\TYPE_FLOAT.HPP
E:\ROMI FILES\MY IMPORTANT FILES\OPENGL\2DENGINE\2DENGINE\PACKAGES\GLM.0.9.7.1\BUILD\NATIVE\INCLUDE\GLM\DETAIL\TYPE_VEC.HPP
E:\ROMI FILES\MY IMPORTANT FILES\OPENGL\2DENGINE\2DENGINE\PACKAGES\GLM.0.9.7.1\BUILD\NATIVE\INCLUDE\GLM\DETAIL\PRECISION.HPP
E:\ROMI FILES\MY IMPORTANT FILES\OPENGL\2DENGINE\2DENGINE\PACKAGES\GLM.0.9.7.1\BUILD\NATIVE\INCLUDE\GLM\DETAIL\TYPE_MAT.HPP
E:\ROMI FILES\MY IMPORTANT FILES\OPENGL\2DENGINE\2DENGINE\PACKAGES\GLM.0.9.7.1\BUILD\NATIVE\INCLUDE\GLM\VEC2.HPP
E:\ROMI FILES\MY IMPORTANT FILES\OPENGL\2DENGINE\2DENGINE\PACKAGES\GLM.0.9.7.1\BUILD\NATIVE\INCLUDE\GLM\DETAIL\TYPE_VEC2.HPP
E:\ROMI FILES\MY IMPORTANT FILES\OPENGL\2DENGINE\2DENGINE\PACKAGES\GLM.0.9.7.1\BUILD\NATIVE\INCLUDE\GLM\DETAIL\TYPE_VEC2.INL
E:\ROMI FILES\MY IMPORTANT FILES\OPENGL\2DENGINE\2DENGINE\PACKAGES\GLM.0.9.7.1\BUILD\NATIVE\INCLUDE\GLM\VEC3.HPP
E:\ROMI FILES\MY IMPORTANT FILES\OPENGL\2DENGINE\2DENGINE\PACKAGES\GLM.0.9.7.1\BUILD\NATIVE\INCLUDE\GLM\DETAIL\TYPE_VEC3.HPP
E:\ROMI FILES\MY IMPORTANT FILES\OPENGL\2DENGINE\2DENGINE\PACKAGES\GLM.0.9.7.1\BUILD\NATIVE\INCLUDE\GLM\DETAIL\TYPE_VEC3.INL
E:\ROMI FILES\MY IMPORTANT FILES\OPENGL\2DENGINE\2DENGINE\PACKAGES\GLM.0.9.7.1\BUILD\NATIVE\INCLUDE\GLM\VEC4.HPP
E:\ROMI FILES\MY IMPORTANT FILES\OPENGL\2DENGINE\2DENGINE\PACKAGES\GLM.0.9.7.1\BUILD\NATIVE\INCLUDE\GLM\DETAIL\TYPE_VEC4.HPP
E:\ROMI FILES\MY IMPORTANT FILES\OPENGL\2DENGINE\2DENGINE\PACKAGES\GLM.0.9.7.1\BUILD\NATIVE\INCLUDE\GLM\DETAIL\TYPE_VEC4.INL
E:\ROMI FILES\MY IMPORTANT FILES\OPENGL\2DENGINE\2DENGINE\PACKAGES\GLM.0.9.7.1\BUILD\NATIVE\INCLUDE\GLM\DETAIL\TYPE_VEC4_SSE2.INL
E:\ROMI FILES\MY IMPORTANT FILES\OPENGL\2DENGINE\2DENGINE\PACKAGES\GLM.0.9.7.1\BUILD\NATIVE\INCLUDE\GLM\MAT2X2.HPP
E:\ROMI FILES\MY IMPORTANT FILES\OPENGL\2DENGINE\2DENGINE\PACKAGES\GLM.0.9.7.1\BUILD\NATIVE\INCLUDE\GLM\DETAIL\TYPE_MAT2X2.HPP
E:\ROMI FILES\MY IMPORTANT FILES\OPENGL\2DENGINE\2DENGINE\PACKAGES\GLM.0.9.7.1\BUILD\NATIVE\INCLUDE\GLM\DETAIL\TYPE_MAT2X2.INL
E:\ROMI FILES\MY IMPORTANT FILES\OPENGL\2DENGINE\2DENGINE\PACKAGES\GLM.0.9.7.1\BUILD\NATIVE\INCLUDE\GLM\MAT2X3.HPP
E:\ROMI FILES\MY IMPORTANT FILES\OPENGL\2DENGINE\2DENGINE\PACKAGES\GLM.0.9.7.1\BUILD\NATIVE\INCLUDE\GLM\DETAIL\TYPE_MAT2X3.HPP
E:\ROMI FILES\MY IMPORTANT FILES\OPENGL\2DENGINE\2DENGINE\PACKAGES\GLM.0.9.7.1\BUILD\NATIVE\INCLUDE\GLM\DETAIL\TYPE_MAT2X3.INL
E:\ROMI FILES\MY IMPORTANT FILES\OPENGL\2DENGINE\2DENGINE\PACKAGES\GLM.0.9.7.1\BUILD\NATIVE\INCLUDE\GLM\MAT2X4.HPP
E:\ROMI FILES\MY IMPORTANT FILES\OPENGL\2DENGINE\2DENGINE\PACKAGES\GLM.0.9.7.1\BUILD\NATIVE\INCLUDE\GLM\DETAIL\TYPE_MAT2X4.HPP
E:\ROMI FILES\MY IMPORTANT FILES\OPENGL\2DENGINE\2DENGINE\PACKAGES\GLM.0.9.7.1\BUILD\NATIVE\INCLUDE\GLM\DETAIL\TYPE_MAT2X4.INL
E:\ROMI FILES\MY IMPORTANT FILES\OPENGL\2DENGINE\2DENGINE\PACKAGES\GLM.0.9.7.1\BUILD\NATIVE\INCLUDE\GLM\MAT3X2.HPP
E:\ROMI FILES\MY IMPORTANT FILES\OPENGL\2DENGINE\2DENGINE\PACKAGES\GLM.0.9.7.1\BUILD\NATIVE\INCLUDE\GLM\DETAIL\TYPE_MAT3X2.HPP
E:\ROMI FILES\MY IMPORTANT FILES\OPENGL\2DENGINE\2DENGINE\PACKAGES\GLM.0.9.7.1\BUILD\NATIVE\INCLUDE\GLM\DETAIL\TYPE_MAT3X2.INL
E:\ROMI FILES\MY IMPORTANT FILES\OPENGL\2DENGINE\2DENGINE\PACKAGES\GLM.0.9.7.1\BUILD\NATIVE\INCLUDE\GLM\MAT3X3.HPP
E:\ROMI FILES\MY IMPORTANT FILES\OPENGL\2DENGINE\2DENGINE\PACKAGES\GLM.0.9.7.1\BUILD\NATIVE\INCLUDE\GLM\DETAIL\TYPE_MAT3X3.HPP
E:\ROMI FILES\MY IMPORTANT FILES\OPENGL\2DENGINE\2DENGINE\PACKAGES\GLM.0.9.7.1\BUILD\NATIVE\INCLUDE\GLM\DETAIL\TYPE_MAT3X3.INL
E:\ROMI FILES\MY IMPORTANT FILES\OPENGL\2DENGINE\2DENGINE\PACKAGES\GLM.0.9.7.1\BUILD\NATIVE\INCLUDE\GLM\MAT3X4.HPP
E:\ROMI FILES\MY IMPORTANT FILES\OPENGL\2DENGINE\2DENGINE\PACKAGES\GLM.0.9.7.1\BUILD\NATIVE\INCLUDE\GLM\DETAIL\TYPE_MAT3X4.HPP
E:\ROMI FILES\MY IMPORTANT FILES\OPENGL\2DENGINE\2DENGINE\PACKAGES\GLM.0.9.7.1\BUILD\NATIVE\INCLUDE\GLM\DETAIL\TYPE_MAT3X4.INL
E:\ROMI FILES\MY IMPORTANT FILES\OPENGL\2DENGINE\2DENGINE\PACKAGES\GLM.0.9.7.1\BUILD\NATIVE\INCLUDE\GLM\MAT4X2.HPP
E:\ROMI FILES\MY IMPORTANT FILES\OPENGL\2DENGINE\2DENGINE\PACKAGES\GLM.0.9.7.1\BUILD\NATIVE\INCLUDE\GLM\DETAIL\TYPE_MAT4X2.HPP
E:\ROMI FILES\MY IMPORTANT FILES\OPENGL\2DENGINE\2DENGINE\PACKAGES\GLM.0.9.7.1\BUILD\NATIVE\INCLUDE\GLM\DETAIL\TYPE_MAT4X2.INL
E:\ROMI FILES\MY IMPORTANT FILES\OPENGL\2DENGINE\2DENGINE\PACKAGES\GLM.0.9.7.1\BUILD\NATIVE\INCLUDE\GLM\MAT4X3.HPP
E:\ROMI FILES\MY IMPORTANT FILES\OPENGL\2DENGINE\2DENGINE\PACKAGES\GLM.0.9.7.1\BUILD\NATIVE\INCLUDE\GLM\DETAIL\TYPE_MAT4X3.HPP
E:\ROMI FILES\MY IMPORTANT FILES\OPENGL\2DENGINE\2DENGINE\PACKAGES\GLM.0.9.7.1\BUILD\NATIVE\INCLUDE\GLM\DETAIL\TYPE_MAT4X3.INL
E:\ROMI FILES\MY IMPORTANT FILES\OPENGL\2DENGINE\2DENGINE\PACKAGES\GLM.0.9.7.1\BUILD\NATIVE\INCLUDE\GLM\MAT4X4.HPP
E:\ROMI FILES\MY IMPORTANT FILES\OPENGL\2DENGINE\2DENGINE\PACKAGES\GLM.0.9.7.1\BUILD\NATIVE\INCLUDE\GLM\DETAIL\TYPE_MAT4X4.HPP
E:\ROMI FILES\MY IMPORTANT FILES\OPENGL\2DENGINE\2DENGINE\PACKAGES\GLM.0.9.7.1\BUILD\NATIVE\INCLUDE\GLM\DETAIL\TYPE_MAT4X4.INL
E:\ROMI FILES\MY IMPORTANT FILES\OPENGL\2DENGINE\2DENGINE\PACKAGES\GLM.0.9.7.1\BUILD\NATIVE\INCLUDE\GLM\TRIGONOMETRIC.HPP
E:\ROMI FILES\MY IMPORTANT FILES\OPENGL\2DENGINE\2DENGINE\PACKAGES\GLM.0.9.7.1\BUILD\NATIVE\INCLUDE\GLM\DETAIL\FUNC_TRIGONOMETRIC.HPP
E:\ROMI FILES\MY IMPORTANT FILES\OPENGL\2DENGINE\2DENGINE\PACKAGES\GLM.0.9.7.1\BUILD\NATIVE\INCLUDE\GLM\DETAIL\FUNC_TRIGONOMETRIC.INL
E:\ROMI FILES\MY IMPORTANT FILES\OPENGL\2DENGINE\2DENGINE\PACKAGES\GLM.0.9.7.1\BUILD\NATIVE\INCLUDE\GLM\DETAIL\_VECTORIZE.HPP
E:\ROMI FILES\MY IMPORTANT FILES\OPENGL\2DENGINE\2DENGINE\PACKAGES\GLM.0.9.7.1\BUILD\NATIVE\INCLUDE\GLM\DETAIL\TYPE_VEC1.HPP
E:\ROMI FILES\MY IMPORTANT FILES\OPENGL\2DENGINE\2DENGINE\PACKAGES\GLM.0.9.7.1\BUILD\NATIVE\INCLUDE\GLM\DETAIL\TYPE_VEC1.INL
E:\ROMI FILES\MY IMPORTANT FILES\OPENGL\2DENGINE\2DENGINE\PACKAGES\GLM.0.9.7.1\BUILD\NATIVE\INCLUDE\GLM\EXPONENTIAL.HPP
E:\ROMI FILES\MY IMPORTANT FILES\OPENGL\2DENGINE\2DENGINE\PACKAGES\GLM.0.9.7.1\BUILD\NATIVE\INCLUDE\GLM\DETAIL\FUNC_EXPONENTIAL.HPP
E:\ROMI FILES\MY IMPORTANT FILES\OPENGL\2DENGINE\2DENGINE\PACKAGES\GLM.0.9.7.1\BUILD\NATIVE\INCLUDE\GLM\DETAIL\FUNC_EXPONENTIAL.INL
E:\ROMI FILES\MY IMPORTANT FILES\OPENGL\2DENGINE\2DENGINE\PACKAGES\GLM.0.9.7.1\BUILD\NATIVE\INCLUDE\GLM\DETAIL\FUNC_VECTOR_RELATIONAL.HPP
E:\ROMI FILES\MY IMPORTANT FILES\OPENGL\2DENGINE\2DENGINE\PACKAGES\GLM.0.9.7.1\BUILD\NATIVE\INCLUDE\GLM\DETAIL\FUNC_VECTOR_RELATIONAL.INL
E:\ROMI FILES\MY IMPORTANT FILES\OPENGL\2DENGINE\2DENGINE\PACKAGES\GLM.0.9.7.1\BUILD\NATIVE\INCLUDE\GLM\COMMON.HPP
E:\ROMI FILES\MY IMPORTANT FILES\OPENGL\2DENGINE\2DENGINE\PACKAGES\GLM.0.9.7.1\BUILD\NATIVE\INCLUDE\GLM\DETAIL\FUNC_COMMON.HPP
E:\ROMI FILES\MY IMPORTANT FILES\OPENGL\2DENGINE\2DENGINE\PACKAGES\GLM.0.9.7.1\BUILD\NATIVE\INCLUDE\GLM\DETAIL\FUNC_COMMON.INL
E:\ROMI FILES\MY IMPORTANT FILES\OPENGL\2DENGINE\2DENGINE\PACKAGES\GLM.0.9.7.1\BUILD\NATIVE\INCLUDE\GLM\PACKING.HPP
E:\ROMI FILES\MY IMPORTANT FILES\OPENGL\2DENGINE\2DENGINE\PACKAGES\GLM.0.9.7.1\BUILD\NATIVE\INCLUDE\GLM\DETAIL\FUNC_PACKING.HPP
E:\ROMI FILES\MY IMPORTANT FILES\OPENGL\2DENGINE\2DENGINE\PACKAGES\GLM.0.9.7.1\BUILD\NATIVE\INCLUDE\GLM\DETAIL\FUNC_PACKING.INL
E:\ROMI FILES\MY IMPORTANT FILES\OPENGL\2DENGINE\2DENGINE\PACKAGES\GLM.0.9.7.1\BUILD\NATIVE\INCLUDE\GLM\DETAIL\TYPE_HALF.HPP
E:\ROMI FILES\MY IMPORTANT FILES\OPENGL\2DENGINE\2DENGINE\PACKAGES\GLM.0.9.7.1\BUILD\NATIVE\INCLUDE\GLM\DETAIL\TYPE_HALF.INL
E:\ROMI FILES\MY IMPORTANT FILES\OPENGL\2DENGINE\2DENGINE\PACKAGES\GLM.0.9.7.1\BUILD\NATIVE\INCLUDE\GLM\GEOMETRIC.HPP
E:\ROMI FILES\MY IMPORTANT FILES\OPENGL\2DENGINE\2DENGINE\PACKAGES\GLM.0.9.7.1\BUILD\NATIVE\INCLUDE\GLM\DETAIL\FUNC_GEOMETRIC.HPP
E:\ROMI FILES\MY IMPORTANT FILES\OPENGL\2DENGINE\2DENGINE\PACKAGES\GLM.0.9.7.1\BUILD\NATIVE\INCLUDE\GLM\DETAIL\FUNC_GEOMETRIC.INL
E:\ROMI FILES\MY IMPORTANT FILES\OPENGL\2DENGINE\2DENGINE\PACKAGES\GLM.0.9.7.1\BUILD\NATIVE\INCLUDE\GLM\MATRIX.HPP
E:\ROMI FILES\MY IMPORTANT FILES\OPENGL\2DENGINE\2DENGINE\PACKAGES\GLM.0.9.7.1\BUILD\NATIVE\INCLUDE\GLM\DETAIL\FUNC_MATRIX.HPP
E:\ROMI FILES\MY IMPORTANT FILES\OPENGL\2DENGINE\2DENGINE\PACKAGES\GLM.0.9.7.1\BUILD\NATIVE\INCLUDE\GLM\DETAIL\FUNC_MATRIX.INL
E:\ROMI FILES\MY IMPORTANT FILES\OPENGL\2DENGINE\2DENGINE\PACKAGES\GLM.0.9.7.1\BUILD\NATIVE\INCLUDE\GLM\VECTOR_RELATIONAL.HPP
E:\ROMI FILES\MY IMPORTANT FILES\OPENGL\2DENGINE\2DENGINE\PACKAGES\GLM.0.9.7.1\BUILD\NATIVE\INCLUDE\GLM\INTEGER.HPP
E:\ROMI FILES\MY IMPORTANT FILES\OPENGL\2DENGINE\2DENGINE\PACKAGES\GLM.0.9.7.1\BUILD\NATIVE\INCLUDE\GLM\DETAIL\FUNC_INTEGER.HPP
E:\ROMI FILES\MY IMPORTANT FILES\OPENGL\2DENGINE\2DENGINE\PACKAGES\GLM.0.9.7.1\BUILD\NATIVE\INCLUDE\GLM\DETAIL\FUNC_INTEGER.INL
E:\ROMI FILES\MY IMPORTANT FILES\OPENGL\2DENGINE\2DENGINE\PACKAGES\GLM.0.9.7.1\BUILD\NATIVE\INCLUDE\GLM\GTC\MATRIX_TRANSFORM.HPP
E:\ROMI FILES\MY IMPORTANT FILES\OPENGL\2DENGINE\2DENGINE\PACKAGES\GLM.0.9.7.1\BUILD\NATIVE\INCLUDE\GLM\GTC\CONSTANTS.HPP
E:\ROMI FILES\MY IMPORTANT FILES\OPENGL\2DENGINE\2DENGINE\PACKAGES\GLM.0.9.7.1\BUILD\NATIVE\INCLUDE\GLM\GTC\CONSTANTS.INL
E:\ROMI FILES\MY IMPORTANT FILES\OPENGL\2DENGINE\2DENGINE\PACKAGES\GLM.0.9.7.1\BUILD\NATIVE\INCLUDE\GLM\GTC\MATRIX_TRANSFORM.INL
E:\ROMI FILES\MY IMPORTANT FILES\OPENGL\2DENGINE\2DENGINE\PACKAGES\GLM.0.9.7.1\BUILD\NATIVE\INCLUDE\GLM\GTC\TYPE_PTR.HPP
E:\ROMI FILES\MY IMPORTANT FILES\OPENGL\2DENGINE\2DENGINE\PACKAGES\GLM.0.9.7.1\BUILD\NATIVE\INCLUDE\GLM\GTC\QUATERNION.HPP
E:\ROMI FILES\MY IMPORTANT FILES\OPENGL\2DENGINE\2DENGINE\PACKAGES\GLM.0.9.7.1\BUILD\NATIVE\INCLUDE\GLM\GTC\QUATERNION.INL
E:\ROMI FILES\MY IMPORTANT FILES\OPENGL\2DENGINE\2DENGINE\PACKAGES\GLM.0.9.7.1\BUILD\NATIVE\INCLUDE\GLM\GTC\TYPE_PTR.INL
C:\WINDOWS\GLOBALIZATION\SORTING\SORTDEFAULT.NLS
D:\VISUAL STUDIO 2015\VC\BIN\1033\CLUI.DLL
C:\WINDOWS\SYSTEM32\TZRES.DLL
E:\ROMI FILES\MY IMPORTANT FILES\OPENGL\2DENGINE\2DENGINE\2DENGINE\VECTOR2D.H
^E:\ROMI FILES\MY IMPORTANT FILES\OPENGL\2DENGINE\2DENGINE\2DENGINE\MATRIX4X4.CPP
^E:\ROMI FILES\MY IMPORTANT FILES\OPENGL\2DENGINE\2DENGINE\2DENGINE\MATRIX3X3.CPP
E:\ROMI FILES\MY IMPORTANT FILES\OPENGL\2DENGINE\2DENGINE\2DENGINE\MATRIX3X3.H
D:\VISUAL STUDIO 2015\VC\INCLUDE\IOSTREAM
D:\VISUAL STUDIO 2015\VC\INCLUDE\ISTREAM
D:\VISUAL STUDIO 2015\VC\INCLUDE\OSTREAM
D:\VISUAL STUDIO 2015\VC\INCLUDE\IOS
D:\VISUAL STUDIO 2015\VC\INCLUDE\XLOCNUM
D:\VISUAL STUDIO 2015\VC\INCLUDE\CLIMITS
D:\VISUAL STUDIO 2015\VC\INCLUDE\YVALS.H
D:\VISUAL STUDIO 2015\VC\INCLUDE\XKEYCHECK.H
D:\VISUAL STUDIO 2015\VC\INCLUDE\CRTDEFS.H
D:\VISUAL STUDIO 2015\VC\INCLUDE\VCRUNTIME.H
D:\VISUAL STUDIO 2015\VC\INCLUDE\SAL.H
D:\VISUAL STUDIO 2015\VC\INCLUDE\CONCURRENCYSAL.H
D:\VISUAL STUDIO 2015\VC\INCLUDE\VADEFS.H
C:\PROGRAM FILES (X86)\WINDOWS KITS\10\INCLUDE\10.0.10240.0\UCRT\CORECRT.H
D:\VISUAL STUDIO 2015\VC\INCLUDE\USE_ANSI.H
D:\VISUAL STUDIO 2015\VC\INCLUDE\LIMITS.H
D:\VISUAL STUDIO 2015\VC\INCLUDE\CMATH
C:\PROGRAM FILES (X86)\WINDOWS KITS\10\INCLUDE\10.0.10240.0\UCRT\MATH.H
D:\VISUAL STUDIO 2015\VC\INCLUDE\XTGMATH.H
D:\VISUAL STUDIO 2015\VC\INCLUDE\XTR1COMMON
D:\VISUAL STUDIO 2015\VC\INCLUDE\CSTDLIB
C:\PROGRAM FILES (X86)\WINDOWS KITS\10\INCLUDE\10.0.10240.0\UCRT\STDLIB.H
C:\PROGRAM FILES (X86)\WINDOWS KITS\10\INCLUDE\10.0.10240.0\UCRT\CORECRT_MALLOC.H
C:\PROGRAM FILES (X86)\WINDOWS KITS\10\INCLUDE\10.0.10240.0\UCRT\CORECRT_SEARCH.H
C:\PROGRAM FILES (X86)\WINDOWS KITS\10\INCLUDE\10.0.10240.0\UCRT\STDDEF.H
C:\PROGRAM FILES (X86)\WINDOWS KITS\10\INCLUDE\10.0.10240.0\UCRT\CORECRT_WSTDLIB.H
D:\VISUAL STUDIO 2015\VC\INCLUDE\CSTDIO
C:\PROGRAM FILES (X86)\WINDOWS KITS\10\INCLUDE\10.0.10240.0\UCRT\STDIO.H
C:\PROGRAM FILES (X86)\WINDOWS KITS\10\INCLUDE\10.0.10240.0\UCRT\CORECRT_WSTDIO.H
C:\PROGRAM FILES (X86)\WINDOWS KITS\10\INCLUDE\10.0.10240.0\UCRT\CORECRT_STDIO_CONFIG.H
D:\VISUAL STUDIO 2015\VC\INCLUDE\STREAMBUF
D:\VISUAL STUDIO 2015\VC\INCLUDE\XIOSBASE
D:\VISUAL STUDIO 2015\VC\INCLUDE\XLOCALE
D:\VISUAL STUDIO 2015\VC\INCLUDE\CSTRING
C:\PROGRAM FILES (X86)\WINDOWS KITS\10\INCLUDE\10.0.10240.0\UCRT\STRING.H
C:\PROGRAM FILES (X86)\WINDOWS KITS\10\INCLUDE\10.0.10240.0\UCRT\CORECRT_MEMORY.H
C:\PROGRAM FILES (X86)\WINDOWS KITS\10\INCLUDE\10.0.10240.0\UCRT\CORECRT_MEMCPY_S.H
C:\PROGRAM FILES (X86)\WINDOWS KITS\10\INCLUDE\10.0.10240.0\UCRT\ERRNO.H
D:\VISUAL STUDIO 2015\VC\INCLUDE\VCRUNTIME_STRING.H
C:\PROGRAM FILES (X86)\WINDOWS KITS\10\INCLUDE\10.0.10240.0\UCRT\CORECRT_WSTRING.H
D:\VISUAL STUDIO 2015\VC\INCLUDE\STDEXCEPT
D:\VISUAL STUDIO 2015\VC\INCLUDE\EXCEPTION
D:\VISUAL STUDIO 2015\VC\INCLUDE\TYPE_TRAITS
D:\VISUAL STUDIO 2015\VC\INCLUDE\XSTDDEF
D:\VISUAL STUDIO 2015\VC\INCLUDE\CSTDDEF
D:\VISUAL STUDIO 2015\VC\INCLUDE\INITIALIZER_LIST
C:\PROGRAM FILES (X86)\WINDOWS KITS\10\INCLUDE\10.0.10240.0\UCRT\MALLOC.H
D:\VISUAL STUDIO 2015\VC\INCLUDE\VCRUNTIME_EXCEPTION.H
D:\VISUAL STUDIO 2015\VC\INCLUDE\EH.H
C:\PROGRAM FILES (X86)\WINDOWS KITS\10\INCLUDE\10.0.10240.0\UCRT\CORECRT_TERMINATE.H
D:\VISUAL STUDIO 2015\VC\INCLUDE\XSTRING
D:\VISUAL STUDIO 2015\VC\INCLUDE\XMEMORY0
D:\VISUAL STUDIO 2015\VC\INCLUDE\CSTDINT
D:\VISUAL STUDIO 2015\VC\INCLUDE\STDINT.H
D:\VISUAL STUDIO 2015\VC\INCLUDE\LIMITS
D:\VISUAL STUDIO 2015\VC\INCLUDE\YMATH.H
D:\VISUAL STUDIO 2015\VC\INCLUDE\CFLOAT
C:\PROGRAM FILES (X86)\WINDOWS KITS\10\INCLUDE\10.0.10240.0\UCRT\FLOAT.H
D:\VISUAL STUDIO 2015\VC\INCLUDE\CWCHAR
C:\PROGRAM FILES (X86)\WINDOWS KITS\10\INCLUDE\10.0.10240.0\UCRT\WCHAR.H
C:\PROGRAM FILES (X86)\WINDOWS KITS\10\INCLUDE\10.0.10240.0\UCRT\CORECRT_WCONIO.H
C:\PROGRAM FILES (X86)\WINDOWS KITS\10\INCLUDE\10.0.10240.0\UCRT\CORECRT_WCTYPE.H
C:\PROGRAM FILES (X86)\WINDOWS KITS\10\INCLUDE\10.0.10240.0\UCRT\CORECRT_WDIRECT.H
C:\PROGRAM FILES (X86)\WINDOWS KITS\10\INCLUDE\10.0.10240.0\UCRT\CORECRT_WIO.H
C:\PROGRAM FILES (X86)\WINDOWS KITS\10\INCLUDE\10.0.10240.0\UCRT\CORECRT_SHARE.H
C:\PROGRAM FILES (X86)\WINDOWS KITS\10\INCLUDE\10.0.10240.0\UCRT\CORECRT_WPROCESS.H
C:\PROGRAM FILES (X86)\WINDOWS KITS\10\INCLUDE\10.0.10240.0\UCRT\CORECRT_WTIME.H
C:\PROGRAM FILES (X86)\WINDOWS KITS\10\INCLUDE\10.0.10240.0\UCRT\SYS\STAT.H
C:\PROGRAM FILES (X86)\WINDOWS KITS\10\INCLUDE\10.0.10240.0\UCRT\SYS\TYPES.H
D:\VISUAL STUDIO 2015\VC\INCLUDE\NEW
D:\VISUAL STUDIO 2015\VC\INCLUDE\VCRUNTIME_NEW.H
D:\VISUAL STUDIO 2015\VC\INCLUDE\XUTILITY
D:\VISUAL STUDIO 2015\VC\INCLUDE\UTILITY
D:\VISUAL STUDIO 2015\VC\INCLUDE\IOSFWD
C:\PROGRAM FILES (X86)\WINDOWS KITS\10\INCLUDE\10.0.10240.0\UCRT\CRTDBG.H
D:\VISUAL STUDIO 2015\VC\INCLUDE\VCRUNTIME_NEW_DEBUG.H
D:\VISUAL STUDIO 2015\VC\INCLUDE\XATOMIC0.H
D:\VISUAL STUDIO 2015\VC\INCLUDE\INTRIN.H
D:\VISUAL STUDIO 2015\VC\INCLUDE\SETJMP.H
D:\VISUAL STUDIO 2015\VC\INCLUDE\IMMINTRIN.H
D:\VISUAL STUDIO 2015\VC\INCLUDE\WMMINTRIN.H
D:\VISUAL STUDIO 2015\VC\INCLUDE\NMMINTRIN.H
D:\VISUAL STUDIO 2015\VC\INCLUDE\SMMINTRIN.H
D:\VISUAL STUDIO 2015\VC\INCLUDE\TMMINTRIN.H
D:\VISUAL STUDIO 2015\VC\INCLUDE\PMMINTRIN.H
D:\VISUAL STUDIO 2015\VC\INCLUDE\EMMINTRIN.H
D:\VISUAL STUDIO 2015\VC\INCLUDE\XMMINTRIN.H
D:\VISUAL STUDIO 2015\VC\INCLUDE\MMINTRIN.H
D:\VISUAL STUDIO 2015\VC\INCLUDE\AMMINTRIN.H
D:\VISUAL STUDIO 2015\VC\INCLUDE\MM3DNOW.H
D:\VISUAL STUDIO 2015\VC\INCLUDE\TYPEINFO
D:\VISUAL STUDIO 2015\VC\INCLUDE\VCRUNTIME_TYPEINFO.H
D:\VISUAL STUDIO 2015\VC\INCLUDE\XLOCINFO
D:\VISUAL STUDIO 2015\VC\INCLUDE\XLOCINFO.H
C:\PROGRAM FILES (X86)\WINDOWS KITS\10\INCLUDE\10.0.10240.0\UCRT\CTYPE.H
C:\PROGRAM FILES (X86)\WINDOWS KITS\10\INCLUDE\10.0.10240.0\UCRT\LOCALE.H
D:\VISUAL STUDIO 2015\VC\INCLUDE\XFACET
D:\VISUAL STUDIO 2015\VC\INCLUDE\SYSTEM_ERROR
D:\VISUAL STUDIO 2015\VC\INCLUDE\CERRNO
C:\PROGRAM FILES (X86)\WINDOWS KITS\10\INCLUDE\10.0.10240.0\UCRT\SHARE.H
E:\ROMI FILES\MY IMPORTANT FILES\OPENGL\2DENGINE\2DENGINE\2DENGINE\VECTOR2D.H
^E:\ROMI FILES\MY IMPORTANT FILES\OPENGL\2DENGINE\2DENGINE\2DENGINE\MAIN_TEST.CPP
^E:\ROMI FILES\MY IMPORTANT FILES\OPENGL\2DENGINE\2DENGINE\2DENGINE\MAIN.CC
E:\ROMI FILES\MY IMPORTANT FILES\OPENGL\2DENGINE\2DENGINE\2DENGINE\QUAD.H
E:\ROMI FILES\MY IMPORTANT FILES\OPENGL\2DENGINE\2DENGINE\2DENGINE\SHADER.H
D:\VISUAL STUDIO 2015\VC\INCLUDE\STRING
D:\VISUAL STUDIO 2015\VC\INCLUDE\ISTREAM
D:\VISUAL STUDIO 2015\VC\INCLUDE\OSTREAM
D:\VISUAL STUDIO 2015\VC\INCLUDE\IOS
D:\VISUAL STUDIO 2015\VC\INCLUDE\XLOCNUM
D:\VISUAL STUDIO 2015\VC\INCLUDE\CLIMITS
D:\VISUAL STUDIO 2015\VC\INCLUDE\YVALS.H
D:\VISUAL STUDIO 2015\VC\INCLUDE\XKEYCHECK.H
D:\VISUAL STUDIO 2015\VC\INCLUDE\CRTDEFS.H
D:\VISUAL STUDIO 2015\VC\INCLUDE\VCRUNTIME.H
D:\VISUAL STUDIO 2015\VC\INCLUDE\SAL.H
D:\VISUAL STUDIO 2015\VC\INCLUDE\CONCURRENCYSAL.H
D:\VISUAL STUDIO 2015\VC\INCLUDE\VADEFS.H
C:\PROGRAM FILES (X86)\WINDOWS KITS\10\INCLUDE\10.0.10240.0\UCRT\CORECRT.H
D:\VISUAL STUDIO 2015\VC\INCLUDE\USE_ANSI.H
D:\VISUAL STUDIO 2015\VC\INCLUDE\LIMITS.H
D:\VISUAL STUDIO 2015\VC\INCLUDE\CMATH
C:\PROGRAM FILES (X86)\WINDOWS KITS\10\INCLUDE\10.0.10240.0\UCRT\MATH.H
D:\VISUAL STUDIO 2015\VC\INCLUDE\XTGMATH.H
D:\VISUAL STUDIO 2015\VC\INCLUDE\XTR1COMMON
D:\VISUAL STUDIO 2015\VC\INCLUDE\CSTDLIB
C:\PROGRAM FILES (X86)\WINDOWS KITS\10\INCLUDE\10.0.10240.0\UCRT\STDLIB.H
C:\PROGRAM FILES (X86)\WINDOWS KITS\10\INCLUDE\10.0.10240.0\UCRT\CORECRT_MALLOC.H
C:\PROGRAM FILES (X86)\WINDOWS KITS\10\INCLUDE\10.0.10240.0\UCRT\CORECRT_SEARCH.H
C:\PROGRAM FILES (X86)\WINDOWS KITS\10\INCLUDE\10.0.10240.0\UCRT\STDDEF.H
C:\PROGRAM FILES (X86)\WINDOWS KITS\10\INCLUDE\10.0.10240.0\UCRT\CORECRT_WSTDLIB.H
D:\VISUAL STUDIO 2015\VC\INCLUDE\CSTDIO
C:\PROGRAM FILES (X86)\WINDOWS KITS\10\INCLUDE\10.0.10240.0\UCRT\STDIO.H
C:\PROGRAM FILES (X86)\WINDOWS KITS\10\INCLUDE\10.0.10240.0\UCRT\CORECRT_WSTDIO.H
C:\PROGRAM FILES (X86)\WINDOWS KITS\10\INCLUDE\10.0.10240.0\UCRT\CORECRT_STDIO_CONFIG.H
D:\VISUAL STUDIO 2015\VC\INCLUDE\STREAMBUF
D:\VISUAL STUDIO 2015\VC\INCLUDE\XIOSBASE
D:\VISUAL STUDIO 2015\VC\INCLUDE\XLOCALE
D:\VISUAL STUDIO 2015\VC\INCLUDE\CSTRING
C:\PROGRAM FILES (X86)\WINDOWS KITS\10\INCLUDE\10.0.10240.0\UCRT\STRING.H
C:\PROGRAM FILES (X86)\WINDOWS KITS\10\INCLUDE\10.0.10240.0\UCRT\CORECRT_MEMORY.H
C:\PROGRAM FILES (X86)\WINDOWS KITS\10\INCLUDE\10.0.10240.0\UCRT\CORECRT_MEMCPY_S.H
C:\PROGRAM FILES (X86)\WINDOWS KITS\10\INCLUDE\10.0.10240.0\UCRT\ERRNO.H
D:\VISUAL STUDIO 2015\VC\INCLUDE\VCRUNTIME_STRING.H
C:\PROGRAM FILES (X86)\WINDOWS KITS\10\INCLUDE\10.0.10240.0\UCRT\CORECRT_WSTRING.H
D:\VISUAL STUDIO 2015\VC\INCLUDE\STDEXCEPT
D:\VISUAL STUDIO 2015\VC\INCLUDE\EXCEPTION
D:\VISUAL STUDIO 2015\VC\INCLUDE\TYPE_TRAITS
D:\VISUAL STUDIO 2015\VC\INCLUDE\XSTDDEF
D:\VISUAL STUDIO 2015\VC\INCLUDE\CSTDDEF
D:\VISUAL STUDIO 2015\VC\INCLUDE\INITIALIZER_LIST
C:\PROGRAM FILES (X86)\WINDOWS KITS\10\INCLUDE\10.0.10240.0\UCRT\MALLOC.H
D:\VISUAL STUDIO 2015\VC\INCLUDE\VCRUNTIME_EXCEPTION.H
D:\VISUAL STUDIO 2015\VC\INCLUDE\EH.H
C:\PROGRAM FILES (X86)\WINDOWS KITS\10\INCLUDE\10.0.10240.0\UCRT\CORECRT_TERMINATE.H
D:\VISUAL STUDIO 2015\VC\INCLUDE\XSTRING
D:\VISUAL STUDIO 2015\VC\INCLUDE\XMEMORY0
D:\VISUAL STUDIO 2015\VC\INCLUDE\CSTDINT
D:\VISUAL STUDIO 2015\VC\INCLUDE\STDINT.H
D:\VISUAL STUDIO 2015\VC\INCLUDE\LIMITS
D:\VISUAL STUDIO 2015\VC\INCLUDE\YMATH.H
D:\VISUAL STUDIO 2015\VC\INCLUDE\CFLOAT
C:\PROGRAM FILES (X86)\WINDOWS KITS\10\INCLUDE\10.0.10240.0\UCRT\FLOAT.H
D:\VISUAL STUDIO 2015\VC\INCLUDE\CWCHAR
C:\PROGRAM FILES (X86)\WINDOWS KITS\10\INCLUDE\10.0.10240.0\UCRT\WCHAR.H
C:\PROGRAM FILES (X86)\WINDOWS KITS\10\INCLUDE\10.0.10240.0\UCRT\CORECRT_WCONIO.H
C:\PROGRAM FILES (X86)\WINDOWS KITS\10\INCLUDE\10.0.10240.0\UCRT\CORECRT_WCTYPE.H
C:\PROGRAM FILES (X86)\WINDOWS KITS\10\INCLUDE\10.0.10240.0\UCRT\CORECRT_WDIRECT.H
C:\PROGRAM FILES (X86)\WINDOWS KITS\10\INCLUDE\10.0.10240.0\UCRT\CORECRT_WIO.H
C:\PROGRAM FILES (X86)\WINDOWS KITS\10\INCLUDE\10.0.10240.0\UCRT\CORECRT_SHARE.H
C:\PROGRAM FILES (X86)\WINDOWS KITS\10\INCLUDE\10.0.10240.0\UCRT\CORECRT_WPROCESS.H
C:\PROGRAM FILES (X86)\WINDOWS KITS\10\INCLUDE\10.0.10240.0\UCRT\CORECRT_WTIME.H
C:\PROGRAM FILES (X86)\WINDOWS KITS\10\INCLUDE\10.0.10240.0\UCRT\SYS\STAT.H
C:\PROGRAM FILES (X86)\WINDOWS KITS\10\INCLUDE\10.0.10240.0\UCRT\SYS\TYPES.H
D:\VISUAL STUDIO 2015\VC\INCLUDE\NEW
D:\VISUAL STUDIO 2015\VC\INCLUDE\VCRUNTIME_NEW.H
D:\VISUAL STUDIO 2015\VC\INCLUDE\XUTILITY
D:\VISUAL STUDIO 2015\VC\INCLUDE\UTILITY
D:\VISUAL STUDIO 2015\VC\INCLUDE\IOSFWD
C:\PROGRAM FILES (X86)\WINDOWS KITS\10\INCLUDE\10.0.10240.0\UCRT\CRTDBG.H
D:\VISUAL STUDIO 2015\VC\INCLUDE\VCRUNTIME_NEW_DEBUG.H
D:\VISUAL STUDIO 2015\VC\INCLUDE\XATOMIC0.H
D:\VISUAL STUDIO 2015\VC\INCLUDE\INTRIN.H
D:\VISUAL STUDIO 2015\VC\INCLUDE\SETJMP.H
D:\VISUAL STUDIO 2015\VC\INCLUDE\IMMINTRIN.H
D:\VISUAL STUDIO 2015\VC\INCLUDE\WMMINTRIN.H
D:\VISUAL STUDIO 2015\VC\INCLUDE\NMMINTRIN.H
D:\VISUAL STUDIO 2015\VC\INCLUDE\SMMINTRIN.H
D:\VISUAL STUDIO 2015\VC\INCLUDE\TMMINTRIN.H
D:\VISUAL STUDIO 2015\VC\INCLUDE\PMMINTRIN.H
D:\VISUAL STUDIO 2015\VC\INCLUDE\EMMINTRIN.H
D:\VISUAL STUDIO 2015\VC\INCLUDE\XMMINTRIN.H
D:\VISUAL STUDIO 2015\VC\INCLUDE\MMINTRIN.H
D:\VISUAL STUDIO 2015\VC\INCLUDE\AMMINTRIN.H
D:\VISUAL STUDIO 2015\VC\INCLUDE\MM3DNOW.H
D:\VISUAL STUDIO 2015\VC\INCLUDE\TYPEINFO
D:\VISUAL STUDIO 2015\VC\INCLUDE\VCRUNTIME_TYPEINFO.H
D:\VISUAL STUDIO 2015\VC\INCLUDE\XLOCINFO
D:\VISUAL STUDIO 2015\VC\INCLUDE\XLOCINFO.H
C:\PROGRAM FILES (X86)\WINDOWS KITS\10\INCLUDE\10.0.10240.0\UCRT\CTYPE.H
C:\PROGRAM FILES (X86)\WINDOWS KITS\10\INCLUDE\10.0.10240.0\UCRT\LOCALE.H
D:\VISUAL STUDIO 2015\VC\INCLUDE\XFACET
D:\VISUAL STUDIO 2015\VC\INCLUDE\SYSTEM_ERROR
D:\VISUAL STUDIO 2015\VC\INCLUDE\CERRNO
C:\PROGRAM FILES (X86)\WINDOWS KITS\10\INCLUDE\10.0.10240.0\UCRT\SHARE.H
D:\VISUAL STUDIO 2015\VC\INCLUDE\FSTREAM
D:\VISUAL STUDIO 2015\VC\INCLUDE\SSTREAM
D:\VISUAL STUDIO 2015\VC\INCLUDE\IOSTREAM
E:\ROMI FILES\MY IMPORTANT FILES\OPENGL\2DENGINE\2DENGINE\PACKAGES\NUPENGL.CORE.0.1.0.1\BUILD\NATIVE\INCLUDE\GL\GLEW.H
C:\PROGRAM FILES (X86)\WINDOWS KITS\8.1\INCLUDE\UM\GL\GLU.H
C:\PROGRAM FILES (X86)\WINDOWS KITS\8.1\INCLUDE\SHARED\WINAPIFAMILY.H
C:\PROGRAM FILES (X86)\WINDOWS KITS\8.1\INCLUDE\UM\GL\GL.H
E:\ROMI FILES\MY IMPORTANT FILES\OPENGL\2DENGINE\2DENGINE\2DENGINE\MATRIX3X3.H
E:\ROMI FILES\MY IMPORTANT FILES\OPENGL\2DENGINE\2DENGINE\2DENGINE\VERTEXBUFFERARRAY.H
E:\ROMI FILES\MY IMPORTANT FILES\OPENGL\2DENGINE\2DENGINE\PACKAGES\NUPENGL.CORE.0.1.0.1\BUILD\NATIVE\INCLUDE\GL\FREEGLUT.H
E:\ROMI FILES\MY IMPORTANT FILES\OPENGL\2DENGINE\2DENGINE\PACKAGES\NUPENGL.CORE.0.1.0.1\BUILD\NATIVE\INCLUDE\GL\FREEGLUT_STD.H
C:\PROGRAM FILES (X86)\WINDOWS KITS\8.1\INCLUDE\UM\WINDOWS.H
C:\PROGRAM FILES (X86)\WINDOWS KITS\8.1\INCLUDE\SHARED\SDKDDKVER.H
D:\VISUAL STUDIO 2015\VC\INCLUDE\EXCPT.H
D:\VISUAL STUDIO 2015\VC\INCLUDE\STDARG.H
C:\PROGRAM FILES (X86)\WINDOWS KITS\8.1\INCLUDE\SHARED\WINDEF.H
C:\PROGRAM FILES (X86)\WINDOWS KITS\8.1\INCLUDE\SHARED\MINWINDEF.H
C:\PROGRAM FILES (X86)\WINDOWS KITS\8.1\INCLUDE\SHARED\SPECSTRINGS.H
C:\PROGRAM FILES (X86)\WINDOWS KITS\8.1\INCLUDE\SHARED\SPECSTRINGS_STRICT.H
C:\PROGRAM FILES (X86)\WINDOWS KITS\8.1\INCLUDE\SHARED\SPECSTRINGS_UNDEF.H
C:\PROGRAM FILES (X86)\WINDOWS KITS\8.1\INCLUDE\SHARED\DRIVERSPECS.H
C:\PROGRAM FILES (X86)\WINDOWS KITS\8.1\INCLUDE\SHARED\SDV_DRIVERSPECS.H
C:\PROGRAM FILES (X86)\WINDOWS KITS\8.1\INCLUDE\UM\WINNT.H
C:\PROGRAM FILES (X86)\WINDOWS KITS\8.1\INCLUDE\SHARED\KERNELSPECS.H
C:\PROGRAM FILES (X86)\WINDOWS KITS\8.1\INCLUDE\SHARED\BASETSD.H
C:\PROGRAM FILES (X86)\WINDOWS KITS\8.1\INCLUDE\SHARED\GUIDDEF.H
C:\PROGRAM FILES (X86)\WINDOWS KITS\8.1\INCLUDE\SHARED\PSHPACK4.H
C:\PROGRAM FILES (X86)\WINDOWS KITS\8.1\INCLUDE\SHARED\POPPACK.H
C:\PROGRAM FILES (X86)\WINDOWS KITS\8.1\INCLUDE\SHARED\PSHPACK2.H
C:\PROGRAM FILES (X86)\WINDOWS KITS\8.1\INCLUDE\SHARED\PSHPACK8.H
C:\PROGRAM FILES (X86)\WINDOWS KITS\8.1\INCLUDE\SHARED\APISET.H
C:\PROGRAM FILES (X86)\WINDOWS KITS\8.1\INCLUDE\SHARED\KTMTYPES.H
C:\PROGRAM FILES (X86)\WINDOWS KITS\8.1\INCLUDE\UM\WINBASE.H
C:\PROGRAM FILES (X86)\WINDOWS KITS\8.1\INCLUDE\SHARED\APISETCCONV.H
C:\PROGRAM FILES (X86)\WINDOWS KITS\8.1\INCLUDE\UM\MINWINBASE.H
C:\PROGRAM FILES (X86)\WINDOWS KITS\8.1\INCLUDE\UM\PROCESSENV.H
C:\PROGRAM FILES (X86)\WINDOWS KITS\8.1\INCLUDE\UM\FILEAPI.H
C:\PROGRAM FILES (X86)\WINDOWS KITS\8.1\INCLUDE\UM\DEBUGAPI.H
C:\PROGRAM FILES (X86)\WINDOWS KITS\8.1\INCLUDE\UM\UTILAPISET.H
C:\PROGRAM FILES (X86)\WINDOWS KITS\8.1\INCLUDE\UM\HANDLEAPI.H
C:\PROGRAM FILES (X86)\WINDOWS KITS\8.1\INCLUDE\UM\ERRHANDLINGAPI.H
C:\PROGRAM FILES (X86)\WINDOWS KITS\8.1\INCLUDE\UM\FIBERSAPI.H
C:\PROGRAM FILES (X86)\WINDOWS KITS\8.1\INCLUDE\UM\NAMEDPIPEAPI.H
C:\PROGRAM FILES (X86)\WINDOWS KITS\8.1\INCLUDE\UM\PROFILEAPI.H
C:\PROGRAM FILES (X86)\WINDOWS KITS\8.1\INCLUDE\UM\HEAPAPI.H
C:\PROGRAM FILES (X86)\WINDOWS KITS\8.1\INCLUDE\UM\IOAPISET.H
C:\PROGRAM FILES (X86)\WINDOWS KITS\8.1\INCLUDE\UM\SYNCHAPI.H
C:\PROGRAM FILES (X86)\WINDOWS KITS\8.1\INCLUDE\UM\INTERLOCKEDAPI.H
C:\PROGRAM FILES (X86)\WINDOWS KITS\8.1\INCLUDE\UM\PROCESSTHREADSAPI.H
C:\PROGRAM FILES (X86)\WINDOWS KITS\8.1\INCLUDE\UM\SYSINFOAPI.H
C:\PROGRAM FILES (X86)\WINDOWS KITS\8.1\INCLUDE\UM\MEMORYAPI.H
C:\PROGRAM FILES (X86)\WINDOWS KITS\8.1\INCLUDE\UM\THREADPOOLLEGACYAPISET.H
C:\PROGRAM FILES (X86)\WINDOWS KITS\8.1\INCLUDE\UM\THREADPOOLAPISET.H
C:\PROGRAM FILES (X86)\WINDOWS KITS\8.1\INCLUDE\UM\BEMAPISET.H
C:\PROGRAM FILES (X86)\WINDOWS KITS\8.1\INCLUDE\UM\JOBAPI.H
C:\PROGRAM FILES (X86)\WINDOWS KITS\8.1\INCLUDE\UM\WOW64APISET.H
C:\PROGRAM FILES (X86)\WINDOWS KITS\8.1\INCLUDE\UM\LIBLOADERAPI.H
C:\PROGRAM FILES (X86)\WINDOWS KITS\8.1\INCLUDE\UM\SECURITYBASEAPI.H
C:\PROGRAM FILES (X86)\WINDOWS KITS\8.1\INCLUDE\UM\NAMESPACEAPI.H
C:\PROGRAM FILES (X86)\WINDOWS KITS\8.1\INCLUDE\UM\SYSTEMTOPOLOGYAPI.H
C:\PROGRAM FILES (X86)\WINDOWS KITS\8.1\INCLUDE\UM\PROCESSTOPOLOGYAPI.H
C:\PROGRAM FILES (X86)\WINDOWS KITS\8.1\INCLUDE\UM\SECURITYAPPCONTAINER.H
C:\PROGRAM FILES (X86)\WINDOWS KITS\8.1\INCLUDE\UM\REALTIMEAPISET.H
C:\PROGRAM FILES (X86)\WINDOWS KITS\8.1\INCLUDE\SHARED\WINERROR.H
C:\PROGRAM FILES (X86)\WINDOWS KITS\8.1\INCLUDE\UM\TIMEZONEAPI.H
C:\PROGRAM FILES (X86)\WINDOWS KITS\8.1\INCLUDE\UM\WINGDI.H
C:\PROGRAM FILES (X86)\WINDOWS KITS\8.1\INCLUDE\SHARED\PSHPACK1.H
C:\PROGRAM FILES (X86)\WINDOWS KITS\8.1\INCLUDE\UM\WINUSER.H
C:\PROGRAM FILES (X86)\WINDOWS KITS\8.1\INCLUDE\SHARED\TVOUT.H
C:\PROGRAM FILES (X86)\WINDOWS KITS\8.1\INCLUDE\UM\WINNLS.H
C:\PROGRAM FILES (X86)\WINDOWS KITS\8.1\INCLUDE\UM\DATETIMEAPI.H
C:\PROGRAM FILES (X86)\WINDOWS KITS\8.1\INCLUDE\UM\STRINGAPISET.H
C:\PROGRAM FILES (X86)\WINDOWS KITS\8.1\INCLUDE\UM\WINCON.H
C:\PROGRAM FILES (X86)\WINDOWS KITS\8.1\INCLUDE\UM\CONSOLEAPI.H
C:\PROGRAM FILES (X86)\WINDOWS KITS\8.1\INCLUDE\UM\WINVER.H
C:\PROGRAM FILES (X86)\WINDOWS KITS\8.1\INCLUDE\UM\VERRSRC.H
C:\PROGRAM FILES (X86)\WINDOWS KITS\8.1\INCLUDE\UM\WINREG.H
C:\PROGRAM FILES (X86)\WINDOWS KITS\8.1\INCLUDE\UM\REASON.H
C:\PROGRAM FILES (X86)\WINDOWS KITS\8.1\INCLUDE\UM\WINNETWK.H
C:\PROGRAM FILES (X86)\WINDOWS KITS\8.1\INCLUDE\SHARED\WNNC.H
C:\PROGRAM FILES (X86)\WINDOWS KITS\8.1\INCLUDE\SHARED\STRALIGN.H
C:\PROGRAM FILES (X86)\WINDOWS KITS\8.1\INCLUDE\UM\WINSVC.H
C:\PROGRAM FILES (X86)\WINDOWS KITS\8.1\INCLUDE\UM\MCX.H
C:\PROGRAM FILES (X86)\WINDOWS KITS\8.1\INCLUDE\UM\IMM.H
C:\PROGRAM FILES (X86)\WINDOWS KITS\8.1\INCLUDE\UM\IME_CMODES.H
E:\ROMI FILES\MY IMPORTANT FILES\OPENGL\2DENGINE\2DENGINE\PACKAGES\NUPENGL.CORE.0.1.0.1\BUILD\NATIVE\INCLUDE\GL\FREEGLUT_EXT.H
E:\ROMI FILES\MY IMPORTANT FILES\OPENGL\2DENGINE\2DENGINE\PACKAGES\NUPENGL.CORE.0.1.0.1\BUILD\NATIVE\INCLUDE\GLFW\GLFW3.H
E:\ROMI FILES\MY IMPORTANT FILES\OPENGL\2DENGINE\2DENGINE\PACKAGES\GLM.0.9.7.1\BUILD\NATIVE\INCLUDE\GLM\GLM.HPP
E:\ROMI FILES\MY IMPORTANT FILES\OPENGL\2DENGINE\2DENGINE\PACKAGES\GLM.0.9.7.1\BUILD\NATIVE\INCLUDE\GLM\DETAIL\_FIXES.HPP
D:\VISUAL STUDIO 2015\VC\INCLUDE\CASSERT
C:\PROGRAM FILES (X86)\WINDOWS KITS\10\INCLUDE\10.0.10240.0\UCRT\ASSERT.H
E:\ROMI FILES\MY IMPORTANT FILES\OPENGL\2DENGINE\2DENGINE\PACKAGES\GLM.0.9.7.1\BUILD\NATIVE\INCLUDE\GLM\FWD.HPP
E:\ROMI FILES\MY IMPORTANT FILES\OPENGL\2DENGINE\2DENGINE\PACKAGES\GLM.0.9.7.1\BUILD\NATIVE\INCLUDE\GLM\DETAIL\TYPE_INT.HPP
E:\ROMI FILES\MY IMPORTANT FILES\OPENGL\2DENGINE\2DENGINE\PACKAGES\GLM.0.9.7.1\BUILD\NATIVE\INCLUDE\GLM\DETAIL\SETUP.HPP
E:\ROMI FILES\MY IMPORTANT FILES\OPENGL\2DENGINE\2DENGINE\PACKAGES\GLM.0.9.7.1\BUILD\NATIVE\INCLUDE\GLM\DETAIL\TYPE_FLOAT.HPP
E:\ROMI FILES\MY IMPORTANT FILES\OPENGL\2DENGINE\2DENGINE\PACKAGES\GLM.0.9.7.1\BUILD\NATIVE\INCLUDE\GLM\DETAIL\TYPE_VEC.HPP
E:\ROMI FILES\MY IMPORTANT FILES\OPENGL\2DENGINE\2DENGINE\PACKAGES\GLM.0.9.7.1\BUILD\NATIVE\INCLUDE\GLM\DETAIL\PRECISION.HPP
E:\ROMI FILES\MY IMPORTANT FILES\OPENGL\2DENGINE\2DENGINE\PACKAGES\GLM.0.9.7.1\BUILD\NATIVE\INCLUDE\GLM\DETAIL\TYPE_MAT.HPP
E:\ROMI FILES\MY IMPORTANT FILES\OPENGL\2DENGINE\2DENGINE\PACKAGES\GLM.0.9.7.1\BUILD\NATIVE\INCLUDE\GLM\VEC2.HPP
E:\ROMI FILES\MY IMPORTANT FILES\OPENGL\2DENGINE\2DENGINE\PACKAGES\GLM.0.9.7.1\BUILD\NATIVE\INCLUDE\GLM\DETAIL\TYPE_VEC2.HPP
E:\ROMI FILES\MY IMPORTANT FILES\OPENGL\2DENGINE\2DENGINE\PACKAGES\GLM.0.9.7.1\BUILD\NATIVE\INCLUDE\GLM\DETAIL\TYPE_VEC2.INL
E:\ROMI FILES\MY IMPORTANT FILES\OPENGL\2DENGINE\2DENGINE\PACKAGES\GLM.0.9.7.1\BUILD\NATIVE\INCLUDE\GLM\VEC3.HPP
E:\ROMI FILES\MY IMPORTANT FILES\OPENGL\2DENGINE\2DENGINE\PACKAGES\GLM.0.9.7.1\BUILD\NATIVE\INCLUDE\GLM\DETAIL\TYPE_VEC3.HPP
E:\ROMI FILES\MY IMPORTANT FILES\OPENGL\2DENGINE\2DENGINE\PACKAGES\GLM.0.9.7.1\BUILD\NATIVE\INCLUDE\GLM\DETAIL\TYPE_VEC3.INL
E:\ROMI FILES\MY IMPORTANT FILES\OPENGL\2DENGINE\2DENGINE\PACKAGES\GLM.0.9.7.1\BUILD\NATIVE\INCLUDE\GLM\VEC4.HPP
E:\ROMI FILES\MY IMPORTANT FILES\OPENGL\2DENGINE\2DENGINE\PACKAGES\GLM.0.9.7.1\BUILD\NATIVE\INCLUDE\GLM\DETAIL\TYPE_VEC4.HPP
E:\ROMI FILES\MY IMPORTANT FILES\OPENGL\2DENGINE\2DENGINE\PACKAGES\GLM.0.9.7.1\BUILD\NATIVE\INCLUDE\GLM\DETAIL\TYPE_VEC4.INL
E:\ROMI FILES\MY IMPORTANT FILES\OPENGL\2DENGINE\2DENGINE\PACKAGES\GLM.0.9.7.1\BUILD\NATIVE\INCLUDE\GLM\DETAIL\TYPE_VEC4_SSE2.INL
E:\ROMI FILES\MY IMPORTANT FILES\OPENGL\2DENGINE\2DENGINE\PACKAGES\GLM.0.9.7.1\BUILD\NATIVE\INCLUDE\GLM\MAT2X2.HPP
E:\ROMI FILES\MY IMPORTANT FILES\OPENGL\2DENGINE\2DENGINE\PACKAGES\GLM.0.9.7.1\BUILD\NATIVE\INCLUDE\GLM\DETAIL\TYPE_MAT2X2.HPP
E:\ROMI FILES\MY IMPORTANT FILES\OPENGL\2DENGINE\2DENGINE\PACKAGES\GLM.0.9.7.1\BUILD\NATIVE\INCLUDE\GLM\DETAIL\TYPE_MAT2X2.INL
E:\ROMI FILES\MY IMPORTANT FILES\OPENGL\2DENGINE\2DENGINE\PACKAGES\GLM.0.9.7.1\BUILD\NATIVE\INCLUDE\GLM\MAT2X3.HPP
E:\ROMI FILES\MY IMPORTANT FILES\OPENGL\2DENGINE\2DENGINE\PACKAGES\GLM.0.9.7.1\BUILD\NATIVE\INCLUDE\GLM\DETAIL\TYPE_MAT2X3.HPP
E:\ROMI FILES\MY IMPORTANT FILES\OPENGL\2DENGINE\2DENGINE\PACKAGES\GLM.0.9.7.1\BUILD\NATIVE\INCLUDE\GLM\DETAIL\TYPE_MAT2X3.INL
E:\ROMI FILES\MY IMPORTANT FILES\OPENGL\2DENGINE\2DENGINE\PACKAGES\GLM.0.9.7.1\BUILD\NATIVE\INCLUDE\GLM\MAT2X4.HPP
E:\ROMI FILES\MY IMPORTANT FILES\OPENGL\2DENGINE\2DENGINE\PACKAGES\GLM.0.9.7.1\BUILD\NATIVE\INCLUDE\GLM\DETAIL\TYPE_MAT2X4.HPP
E:\ROMI FILES\MY IMPORTANT FILES\OPENGL\2DENGINE\2DENGINE\PACKAGES\GLM.0.9.7.1\BUILD\NATIVE\INCLUDE\GLM\DETAIL\TYPE_MAT2X4.INL
E:\ROMI FILES\MY IMPORTANT FILES\OPENGL\2DENGINE\2DENGINE\PACKAGES\GLM.0.9.7.1\BUILD\NATIVE\INCLUDE\GLM\MAT3X2.HPP
E:\ROMI FILES\MY IMPORTANT FILES\OPENGL\2DENGINE\2DENGINE\PACKAGES\GLM.0.9.7.1\BUILD\NATIVE\INCLUDE\GLM\DETAIL\TYPE_MAT3X2.HPP
E:\ROMI FILES\MY IMPORTANT FILES\OPENGL\2DENGINE\2DENGINE\PACKAGES\GLM.0.9.7.1\BUILD\NATIVE\INCLUDE\GLM\DETAIL\TYPE_MAT3X2.INL
E:\ROMI FILES\MY IMPORTANT FILES\OPENGL\2DENGINE\2DENGINE\PACKAGES\GLM.0.9.7.1\BUILD\NATIVE\INCLUDE\GLM\MAT3X3.HPP
E:\ROMI FILES\MY IMPORTANT FILES\OPENGL\2DENGINE\2DENGINE\PACKAGES\GLM.0.9.7.1\BUILD\NATIVE\INCLUDE\GLM\DETAIL\TYPE_MAT3X3.HPP
E:\ROMI FILES\MY IMPORTANT FILES\OPENGL\2DENGINE\2DENGINE\PACKAGES\GLM.0.9.7.1\BUILD\NATIVE\INCLUDE\GLM\DETAIL\TYPE_MAT3X3.INL
E:\ROMI FILES\MY IMPORTANT FILES\OPENGL\2DENGINE\2DENGINE\PACKAGES\GLM.0.9.7.1\BUILD\NATIVE\INCLUDE\GLM\MAT3X4.HPP
E:\ROMI FILES\MY IMPORTANT FILES\OPENGL\2DENGINE\2DENGINE\PACKAGES\GLM.0.9.7.1\BUILD\NATIVE\INCLUDE\GLM\DETAIL\TYPE_MAT3X4.HPP
E:\ROMI FILES\MY IMPORTANT FILES\OPENGL\2DENGINE\2DENGINE\PACKAGES\GLM.0.9.7.1\BUILD\NATIVE\INCLUDE\GLM\DETAIL\TYPE_MAT3X4.INL
E:\ROMI FILES\MY IMPORTANT FILES\OPENGL\2DENGINE\2DENGINE\PACKAGES\GLM.0.9.7.1\BUILD\NATIVE\INCLUDE\GLM\MAT4X2.HPP
E:\ROMI FILES\MY IMPORTANT FILES\OPENGL\2DENGINE\2DENGINE\PACKAGES\GLM.0.9.7.1\BUILD\NATIVE\INCLUDE\GLM\DETAIL\TYPE_MAT4X2.HPP
E:\ROMI FILES\MY IMPORTANT FILES\OPENGL\2DENGINE\2DENGINE\PACKAGES\GLM.0.9.7.1\BUILD\NATIVE\INCLUDE\GLM\DETAIL\TYPE_MAT4X2.INL
E:\ROMI FILES\MY IMPORTANT FILES\OPENGL\2DENGINE\2DENGINE\PACKAGES\GLM.0.9.7.1\BUILD\NATIVE\INCLUDE\GLM\MAT4X3.HPP
E:\ROMI FILES\MY IMPORTANT FILES\OPENGL\2DENGINE\2DENGINE\PACKAGES\GLM.0.9.7.1\BUILD\NATIVE\INCLUDE\GLM\DETAIL\TYPE_MAT4X3.HPP
E:\ROMI FILES\MY IMPORTANT FILES\OPENGL\2DENGINE\2DENGINE\PACKAGES\GLM.0.9.7.1\BUILD\NATIVE\INCLUDE\GLM\DETAIL\TYPE_MAT4X3.INL
E:\ROMI FILES\MY IMPORTANT FILES\OPENGL\2DENGINE\2DENGINE\PACKAGES\GLM.0.9.7.1\BUILD\NATIVE\INCLUDE\GLM\MAT4X4.HPP
E:\ROMI FILES\MY IMPORTANT FILES\OPENGL\2DENGINE\2DENGINE\PACKAGES\GLM.0.9.7.1\BUILD\NATIVE\INCLUDE\GLM\DETAIL\TYPE_MAT4X4.HPP
E:\ROMI FILES\MY IMPORTANT FILES\OPENGL\2DENGINE\2DENGINE\PACKAGES\GLM.0.9.7.1\BUILD\NATIVE\INCLUDE\GLM\DETAIL\TYPE_MAT4X4.INL
E:\ROMI FILES\MY IMPORTANT FILES\OPENGL\2DENGINE\2DENGINE\PACKAGES\GLM.0.9.7.1\BUILD\NATIVE\INCLUDE\GLM\TRIGONOMETRIC.HPP
E:\ROMI FILES\MY IMPORTANT FILES\OPENGL\2DENGINE\2DENGINE\PACKAGES\GLM.0.9.7.1\BUILD\NATIVE\INCLUDE\GLM\DETAIL\FUNC_TRIGONOMETRIC.HPP
E:\ROMI FILES\MY IMPORTANT FILES\OPENGL\2DENGINE\2DENGINE\PACKAGES\GLM.0.9.7.1\BUILD\NATIVE\INCLUDE\GLM\DETAIL\FUNC_TRIGONOMETRIC.INL
E:\ROMI FILES\MY IMPORTANT FILES\OPENGL\2DENGINE\2DENGINE\PACKAGES\GLM.0.9.7.1\BUILD\NATIVE\INCLUDE\GLM\DETAIL\_VECTORIZE.HPP
E:\ROMI FILES\MY IMPORTANT FILES\OPENGL\2DENGINE\2DENGINE\PACKAGES\GLM.0.9.7.1\BUILD\NATIVE\INCLUDE\GLM\DETAIL\TYPE_VEC1.HPP
E:\ROMI FILES\MY IMPORTANT FILES\OPENGL\2DENGINE\2DENGINE\PACKAGES\GLM.0.9.7.1\BUILD\NATIVE\INCLUDE\GLM\DETAIL\TYPE_VEC1.INL
E:\ROMI FILES\MY IMPORTANT FILES\OPENGL\2DENGINE\2DENGINE\PACKAGES\GLM.0.9.7.1\BUILD\NATIVE\INCLUDE\GLM\EXPONENTIAL.HPP
E:\ROMI FILES\MY IMPORTANT FILES\OPENGL\2DENGINE\2DENGINE\PACKAGES\GLM.0.9.7.1\BUILD\NATIVE\INCLUDE\GLM\DETAIL\FUNC_EXPONENTIAL.HPP
E:\ROMI FILES\MY IMPORTANT FILES\OPENGL\2DENGINE\2DENGINE\PACKAGES\GLM.0.9.7.1\BUILD\NATIVE\INCLUDE\GLM\DETAIL\FUNC_EXPONENTIAL.INL
E:\ROMI FILES\MY IMPORTANT FILES\OPENGL\2DENGINE\2DENGINE\PACKAGES\GLM.0.9.7.1\BUILD\NATIVE\INCLUDE\GLM\DETAIL\FUNC_VECTOR_RELATIONAL.HPP
E:\ROMI FILES\MY IMPORTANT FILES\OPENGL\2DENGINE\2DENGINE\PACKAGES\GLM.0.9.7.1\BUILD\NATIVE\INCLUDE\GLM\DETAIL\FUNC_VECTOR_RELATIONAL.INL
E:\ROMI FILES\MY IMPORTANT FILES\OPENGL\2DENGINE\2DENGINE\PACKAGES\GLM.0.9.7.1\BUILD\NATIVE\INCLUDE\GLM\COMMON.HPP
E:\ROMI FILES\MY IMPORTANT FILES\OPENGL\2DENGINE\2DENGINE\PACKAGES\GLM.0.9.7.1\BUILD\NATIVE\INCLUDE\GLM\DETAIL\FUNC_COMMON.HPP
E:\ROMI FILES\MY IMPORTANT FILES\OPENGL\2DENGINE\2DENGINE\PACKAGES\GLM.0.9.7.1\BUILD\NATIVE\INCLUDE\GLM\DETAIL\FUNC_COMMON.INL
E:\ROMI FILES\MY IMPORTANT FILES\OPENGL\2DENGINE\2DENGINE\PACKAGES\GLM.0.9.7.1\BUILD\NATIVE\INCLUDE\GLM\PACKING.HPP
E:\ROMI FILES\MY IMPORTANT FILES\OPENGL\2DENGINE\2DENGINE\PACKAGES\GLM.0.9.7.1\BUILD\NATIVE\INCLUDE\GLM\DETAIL\FUNC_PACKING.HPP
E:\ROMI FILES\MY IMPORTANT FILES\OPENGL\2DENGINE\2DENGINE\PACKAGES\GLM.0.9.7.1\BUILD\NATIVE\INCLUDE\GLM\DETAIL\FUNC_PACKING.INL
E:\ROMI FILES\MY IMPORTANT FILES\OPENGL\2DENGINE\2DENGINE\PACKAGES\GLM.0.9.7.1\BUILD\NATIVE\INCLUDE\GLM\DETAIL\TYPE_HALF.HPP
E:\ROMI FILES\MY IMPORTANT FILES\OPENGL\2DENGINE\2DENGINE\PACKAGES\GLM.0.9.7.1\BUILD\NATIVE\INCLUDE\GLM\DETAIL\TYPE_HALF.INL
E:\ROMI FILES\MY IMPORTANT FILES\OPENGL\2DENGINE\2DENGINE\PACKAGES\GLM.0.9.7.1\BUILD\NATIVE\INCLUDE\GLM\GEOMETRIC.HPP
E:\ROMI FILES\MY IMPORTANT FILES\OPENGL\2DENGINE\2DENGINE\PACKAGES\GLM.0.9.7.1\BUILD\NATIVE\INCLUDE\GLM\DETAIL\FUNC_GEOMETRIC.HPP
E:\ROMI FILES\MY IMPORTANT FILES\OPENGL\2DENGINE\2DENGINE\PACKAGES\GLM.0.9.7.1\BUILD\NATIVE\INCLUDE\GLM\DETAIL\FUNC_GEOMETRIC.INL
E:\ROMI FILES\MY IMPORTANT FILES\OPENGL\2DENGINE\2DENGINE\PACKAGES\GLM.0.9.7.1\BUILD\NATIVE\INCLUDE\GLM\MATRIX.HPP
E:\ROMI FILES\MY IMPORTANT FILES\OPENGL\2DENGINE\2DENGINE\PACKAGES\GLM.0.9.7.1\BUILD\NATIVE\INCLUDE\GLM\DETAIL\FUNC_MATRIX.HPP
E:\ROMI FILES\MY IMPORTANT FILES\OPENGL\2DENGINE\2DENGINE\PACKAGES\GLM.0.9.7.1\BUILD\NATIVE\INCLUDE\GLM\DETAIL\FUNC_MATRIX.INL
E:\ROMI FILES\MY IMPORTANT FILES\OPENGL\2DENGINE\2DENGINE\PACKAGES\GLM.0.9.7.1\BUILD\NATIVE\INCLUDE\GLM\VECTOR_RELATIONAL.HPP
E:\ROMI FILES\MY IMPORTANT FILES\OPENGL\2DENGINE\2DENGINE\PACKAGES\GLM.0.9.7.1\BUILD\NATIVE\INCLUDE\GLM\INTEGER.HPP
E:\ROMI FILES\MY IMPORTANT FILES\OPENGL\2DENGINE\2DENGINE\PACKAGES\GLM.0.9.7.1\BUILD\NATIVE\INCLUDE\GLM\DETAIL\FUNC_INTEGER.HPP
E:\ROMI FILES\MY IMPORTANT FILES\OPENGL\2DENGINE\2DENGINE\PACKAGES\GLM.0.9.7.1\BUILD\NATIVE\INCLUDE\GLM\DETAIL\FUNC_INTEGER.INL
E:\ROMI FILES\MY IMPORTANT FILES\OPENGL\2DENGINE\2DENGINE\PACKAGES\GLM.0.9.7.1\BUILD\NATIVE\INCLUDE\GLM\GTC\MATRIX_TRANSFORM.HPP
E:\ROMI FILES\MY IMPORTANT FILES\OPENGL\2DENGINE\2DENGINE\PACKAGES\GLM.0.9.7.1\BUILD\NATIVE\INCLUDE\GLM\GTC\CONSTANTS.HPP
E:\ROMI FILES\MY IMPORTANT FILES\OPENGL\2DENGINE\2DENGINE\PACKAGES\GLM.0.9.7.1\BUILD\NATIVE\INCLUDE\GLM\GTC\CONSTANTS.INL
E:\ROMI FILES\MY IMPORTANT FILES\OPENGL\2DENGINE\2DENGINE\PACKAGES\GLM.0.9.7.1\BUILD\NATIVE\INCLUDE\GLM\GTC\MATRIX_TRANSFORM.INL
E:\ROMI FILES\MY IMPORTANT FILES\OPENGL\2DENGINE\2DENGINE\PACKAGES\GLM.0.9.7.1\BUILD\NATIVE\INCLUDE\GLM\GTC\TYPE_PTR.HPP
E:\ROMI FILES\MY IMPORTANT FILES\OPENGL\2DENGINE\2DENGINE\PACKAGES\GLM.0.9.7.1\BUILD\NATIVE\INCLUDE\GLM\GTC\QUATERNION.HPP
E:\ROMI FILES\MY IMPORTANT FILES\OPENGL\2DENGINE\2DENGINE\PACKAGES\GLM.0.9.7.1\BUILD\NATIVE\INCLUDE\GLM\GTC\QUATERNION.INL
E:\ROMI FILES\MY IMPORTANT FILES\OPENGL\2DENGINE\2DENGINE\PACKAGES\GLM.0.9.7.1\BUILD\NATIVE\INCLUDE\GLM\GTC\TYPE_PTR.INL
E:\ROMI FILES\MY IMPORTANT FILES\OPENGL\2DENGINE\2DENGINE\2DENGINE\SPRITEBATCHER.H
C:\WINDOWS\GLOBALIZATION\SORTING\SORTDEFAULT.NLS
D:\VISUAL STUDIO 2015\VC\BIN\1033\CLUI.DLL
C:\WINDOWS\SYSTEM32\TZRES.DLL
D:\VISUAL STUDIO 2015\VC\BIN\MSPDBSRV.EXE
E:\ROMI FILES\MY IMPORTANT FILES\OPENGL\2DENGINE\2DENGINE\2DENGINE\VECTOR2D.H
^E:\ROMI FILES\MY IMPORTANT FILES\OPENGL\2DENGINE\2DENGINE\2DENGINE\SPRITEBATCHER.CPP
E:\ROMI FILES\MY IMPORTANT FILES\OPENGL\2DENGINE\2DENGINE\2DENGINE\SPRITEBATCHER.H
E:\ROMI FILES\MY IMPORTANT FILES\OPENGL\2DENGINE\2DENGINE\2DENGINE\SHADER.H
D:\VISUAL STUDIO 2015\VC\INCLUDE\STRING
D:\VISUAL STUDIO 2015\VC\INCLUDE\ISTREAM
D:\VISUAL STUDIO 2015\VC\INCLUDE\OSTREAM
D:\VISUAL STUDIO 2015\VC\INCLUDE\IOS
D:\VISUAL STUDIO 2015\VC\INCLUDE\XLOCNUM
D:\VISUAL STUDIO 2015\VC\INCLUDE\CLIMITS
D:\VISUAL STUDIO 2015\VC\INCLUDE\YVALS.H
D:\VISUAL STUDIO 2015\VC\INCLUDE\XKEYCHECK.H
D:\VISUAL STUDIO 2015\VC\INCLUDE\CRTDEFS.H
D:\VISUAL STUDIO 2015\VC\INCLUDE\VCRUNTIME.H
D:\VISUAL STUDIO 2015\VC\INCLUDE\SAL.H
D:\VISUAL STUDIO 2015\VC\INCLUDE\CONCURRENCYSAL.H
D:\VISUAL STUDIO 2015\VC\INCLUDE\VADEFS.H
C:\PROGRAM FILES (X86)\WINDOWS KITS\10\INCLUDE\10.0.10240.0\UCRT\CORECRT.H
D:\VISUAL STUDIO 2015\VC\INCLUDE\USE_ANSI.H
D:\VISUAL STUDIO 2015\VC\INCLUDE\LIMITS.H
D:\VISUAL STUDIO 2015\VC\INCLUDE\CMATH
C:\PROGRAM FILES (X86)\WINDOWS KITS\10\INCLUDE\10.0.10240.0\UCRT\MATH.H
D:\VISUAL STUDIO 2015\VC\INCLUDE\XTGMATH.H
D:\VISUAL STUDIO 2015\VC\INCLUDE\XTR1COMMON
D:\VISUAL STUDIO 2015\VC\INCLUDE\CSTDLIB
C:\PROGRAM FILES (X86)\WINDOWS KITS\10\INCLUDE\10.0.10240.0\UCRT\STDLIB.H
C:\PROGRAM FILES (X86)\WINDOWS KITS\10\INCLUDE\10.0.10240.0\UCRT\CORECRT_MALLOC.H
C:\PROGRAM FILES (X86)\WINDOWS KITS\10\INCLUDE\10.0.10240.0\UCRT\CORECRT_SEARCH.H
C:\PROGRAM FILES (X86)\WINDOWS KITS\10\INCLUDE\10.0.10240.0\UCRT\STDDEF.H
C:\PROGRAM FILES (X86)\WINDOWS KITS\10\INCLUDE\10.0.10240.0\UCRT\CORECRT_WSTDLIB.H
D:\VISUAL STUDIO 2015\VC\INCLUDE\CSTDIO
C:\PROGRAM FILES (X86)\WINDOWS KITS\10\INCLUDE\10.0.10240.0\UCRT\STDIO.H
C:\PROGRAM FILES (X86)\WINDOWS KITS\10\INCLUDE\10.0.10240.0\UCRT\CORECRT_WSTDIO.H
C:\PROGRAM FILES (X86)\WINDOWS KITS\10\INCLUDE\10.0.10240.0\UCRT\CORECRT_STDIO_CONFIG.H
D:\VISUAL STUDIO 2015\VC\INCLUDE\STREAMBUF
D:\VISUAL STUDIO 2015\VC\INCLUDE\XIOSBASE
D:\VISUAL STUDIO 2015\VC\INCLUDE\XLOCALE
D:\VISUAL STUDIO 2015\VC\INCLUDE\CSTRING
C:\PROGRAM FILES (X86)\WINDOWS KITS\10\INCLUDE\10.0.10240.0\UCRT\STRING.H
C:\PROGRAM FILES (X86)\WINDOWS KITS\10\INCLUDE\10.0.10240.0\UCRT\CORECRT_MEMORY.H
C:\PROGRAM FILES (X86)\WINDOWS KITS\10\INCLUDE\10.0.10240.0\UCRT\CORECRT_MEMCPY_S.H
C:\PROGRAM FILES (X86)\WINDOWS KITS\10\INCLUDE\10.0.10240.0\UCRT\ERRNO.H
D:\VISUAL STUDIO 2015\VC\INCLUDE\VCRUNTIME_STRING.H
C:\PROGRAM FILES (X86)\WINDOWS KITS\10\INCLUDE\10.0.10240.0\UCRT\CORECRT_WSTRING.H
D:\VISUAL STUDIO 2015\VC\INCLUDE\STDEXCEPT
D:\VISUAL STUDIO 2015\VC\INCLUDE\EXCEPTION
D:\VISUAL STUDIO 2015\VC\INCLUDE\TYPE_TRAITS
D:\VISUAL STUDIO 2015\VC\INCLUDE\XSTDDEF
D:\VISUAL STUDIO 2015\VC\INCLUDE\CSTDDEF
D:\VISUAL STUDIO 2015\VC\INCLUDE\INITIALIZER_LIST
C:\PROGRAM FILES (X86)\WINDOWS KITS\10\INCLUDE\10.0.10240.0\UCRT\MALLOC.H
D:\VISUAL STUDIO 2015\VC\INCLUDE\VCRUNTIME_EXCEPTION.H
D:\VISUAL STUDIO 2015\VC\INCLUDE\EH.H
C:\PROGRAM FILES (X86)\WINDOWS KITS\10\INCLUDE\10.0.10240.0\UCRT\CORECRT_TERMINATE.H
D:\VISUAL STUDIO 2015\VC\INCLUDE\XSTRING
D:\VISUAL STUDIO 2015\VC\INCLUDE\XMEMORY0
D:\VISUAL STUDIO 2015\VC\INCLUDE\CSTDINT
D:\VISUAL STUDIO 2015\VC\INCLUDE\STDINT.H
D:\VISUAL STUDIO 2015\VC\INCLUDE\LIMITS
D:\VISUAL STUDIO 2015\VC\INCLUDE\YMATH.H
D:\VISUAL STUDIO 2015\VC\INCLUDE\CFLOAT
C:\PROGRAM FILES (X86)\WINDOWS KITS\10\INCLUDE\10.0.10240.0\UCRT\FLOAT.H
D:\VISUAL STUDIO 2015\VC\INCLUDE\CWCHAR
C:\PROGRAM FILES (X86)\WINDOWS KITS\10\INCLUDE\10.0.10240.0\UCRT\WCHAR.H
C:\PROGRAM FILES (X86)\WINDOWS KITS\10\INCLUDE\10.0.10240.0\UCRT\CORECRT_WCONIO.H
C:\PROGRAM FILES (X86)\WINDOWS KITS\10\INCLUDE\10.0.10240.0\UCRT\CORECRT_WCTYPE.H
C:\PROGRAM FILES (X86)\WINDOWS KITS\10\INCLUDE\10.0.10240.0\UCRT\CORECRT_WDIRECT.H
C:\PROGRAM FILES (X86)\WINDOWS KITS\10\INCLUDE\10.0.10240.0\UCRT\CORECRT_WIO.H
C:\PROGRAM FILES (X86)\WINDOWS KITS\10\INCLUDE\10.0.10240.0\UCRT\CORECRT_SHARE.H
C:\PROGRAM FILES (X86)\WINDOWS KITS\10\INCLUDE\10.0.10240.0\UCRT\CORECRT_WPROCESS.H
C:\PROGRAM FILES (X86)\WINDOWS KITS\10\INCLUDE\10.0.10240.0\UCRT\CORECRT_WTIME.H
C:\PROGRAM FILES (X86)\WINDOWS KITS\10\INCLUDE\10.0.10240.0\UCRT\SYS\STAT.H
C:\PROGRAM FILES (X86)\WINDOWS KITS\10\INCLUDE\10.0.10240.0\UCRT\SYS\TYPES.H
D:\VISUAL STUDIO 2015\VC\INCLUDE\NEW
D:\VISUAL STUDIO 2015\VC\INCLUDE\VCRUNTIME_NEW.H
D:\VISUAL STUDIO 2015\VC\INCLUDE\XUTILITY
D:\VISUAL STUDIO 2015\VC\INCLUDE\UTILITY
D:\VISUAL STUDIO 2015\VC\INCLUDE\IOSFWD
C:\PROGRAM FILES (X86)\WINDOWS KITS\10\INCLUDE\10.0.10240.0\UCRT\CRTDBG.H
D:\VISUAL STUDIO 2015\VC\INCLUDE\VCRUNTIME_NEW_DEBUG.H
D:\VISUAL STUDIO 2015\VC\INCLUDE\XATOMIC0.H
D:\VISUAL STUDIO 2015\VC\INCLUDE\INTRIN.H
D:\VISUAL STUDIO 2015\VC\INCLUDE\SETJMP.H
D:\VISUAL STUDIO 2015\VC\INCLUDE\IMMINTRIN.H
D:\VISUAL STUDIO 2015\VC\INCLUDE\WMMINTRIN.H
D:\VISUAL STUDIO 2015\VC\INCLUDE\NMMINTRIN.H
D:\VISUAL STUDIO 2015\VC\INCLUDE\SMMINTRIN.H
D:\VISUAL STUDIO 2015\VC\INCLUDE\TMMINTRIN.H
D:\VISUAL STUDIO 2015\VC\INCLUDE\PMMINTRIN.H
D:\VISUAL STUDIO 2015\VC\INCLUDE\EMMINTRIN.H
D:\VISUAL STUDIO 2015\VC\INCLUDE\XMMINTRIN.H
D:\VISUAL STUDIO 2015\VC\INCLUDE\MMINTRIN.H
D:\VISUAL STUDIO 2015\VC\INCLUDE\AMMINTRIN.H
D:\VISUAL STUDIO 2015\VC\INCLUDE\MM3DNOW.H
D:\VISUAL STUDIO 2015\VC\INCLUDE\TYPEINFO
D:\VISUAL STUDIO 2015\VC\INCLUDE\VCRUNTIME_TYPEINFO.H
D:\VISUAL STUDIO 2015\VC\INCLUDE\XLOCINFO
D:\VISUAL STUDIO 2015\VC\INCLUDE\XLOCINFO.H
C:\PROGRAM FILES (X86)\WINDOWS KITS\10\INCLUDE\10.0.10240.0\UCRT\CTYPE.H
C:\PROGRAM FILES (X86)\WINDOWS KITS\10\INCLUDE\10.0.10240.0\UCRT\LOCALE.H
D:\VISUAL STUDIO 2015\VC\INCLUDE\XFACET
D:\VISUAL STUDIO 2015\VC\INCLUDE\SYSTEM_ERROR
D:\VISUAL STUDIO 2015\VC\INCLUDE\CERRNO
C:\PROGRAM FILES (X86)\WINDOWS KITS\10\INCLUDE\10.0.10240.0\UCRT\SHARE.H
D:\VISUAL STUDIO 2015\VC\INCLUDE\FSTREAM
D:\VISUAL STUDIO 2015\VC\INCLUDE\SSTREAM
D:\VISUAL STUDIO 2015\VC\INCLUDE\IOSTREAM
E:\ROMI FILES\MY IMPORTANT FILES\OPENGL\2DENGINE\2DENGINE\PACKAGES\NUPENGL.CORE.0.1.0.1\BUILD\NATIVE\INCLUDE\GL\GLEW.H
C:\PROGRAM FILES (X86)\WINDOWS KITS\8.1\INCLUDE\UM\GL\GLU.H
C:\PROGRAM FILES (X86)\WINDOWS KITS\8.1\INCLUDE\SHARED\WINAPIFAMILY.H
C:\PROGRAM FILES (X86)\WINDOWS KITS\8.1\INCLUDE\UM\GL\GL.H
E:\ROMI FILES\MY IMPORTANT FILES\OPENGL\2DENGINE\2DENGINE\2DENGINE\VERTEXBUFFERARRAY.H
E:\ROMI FILES\MY IMPORTANT FILES\OPENGL\2DENGINE\2DENGINE\2DENGINE\QUAD.H
E:\ROMI FILES\MY IMPORTANT FILES\OPENGL\2DENGINE\2DENGINE\2DENGINE\MATRIX3X3.H
C:\WINDOWS\GLOBALIZATION\SORTING\SORTDEFAULT.NLS
D:\VISUAL STUDIO 2015\VC\BIN\1033\CLUI.DLL
C:\WINDOWS\SYSTEM32\TZRES.DLL
D:\VISUAL STUDIO 2015\VC\BIN\MSPDBSRV.EXE
